^C:\USERS\JJURADO\DOCUMENTS\VISUAL STUDIO 2015\PROJECTS\MECANICA\PRACTICA 0\MAIN.CPP
C:\USERS\JJURADO\DOCUMENTS\VISUAL STUDIO 2015\PROJECTS\MECANICA\PRACTICA 0\DEBUG\VC140.PDB
C:\USERS\JJURADO\DOCUMENTS\VISUAL STUDIO 2015\PROJECTS\MECANICA\PRACTICA 0\DEBUG\VC140.IDB
C:\USERS\JJURADO\DOCUMENTS\VISUAL STUDIO 2015\PROJECTS\MECANICA\PRACTICA 0\DEBUG\MAIN.OBJ
