^C:\USERS\JJURADO\DOCUMENTS\MECANICA_OLD\MECANICA\PARTICLES2D CON ESFERA\PARTICLES2D\DEBUG\ERRORMANAGEMENT.OBJ|C:\USERS\JJURADO\DOCUMENTS\MECANICA_OLD\MECANICA\PARTICLES2D CON ESFERA\PARTICLES2D\DEBUG\FPSLIMITER.OBJ|C:\USERS\JJURADO\DOCUMENTS\MECANICA_OLD\MECANICA\PARTICLES2D CON ESFERA\PARTICLES2D\DEBUG\GAME.OBJ|C:\USERS\JJURADO\DOCUMENTS\MECANICA_OLD\MECANICA\PARTICLES2D CON ESFERA\PARTICLES2D\DEBUG\GEOMETRYPLANE.OBJ|C:\USERS\JJURADO\DOCUMENTS\MECANICA_OLD\MECANICA\PARTICLES2D CON ESFERA\PARTICLES2D\DEBUG\GLSLPROGRAM.OBJ|C:\USERS\JJURADO\DOCUMENTS\MECANICA_OLD\MECANICA\PARTICLES2D CON ESFERA\PARTICLES2D\DEBUG\INPUTMANAGER.OBJ|C:\USERS\JJURADO\DOCUMENTS\MECANICA_OLD\MECANICA\PARTICLES2D CON ESFERA\PARTICLES2D\DEBUG\MAINPART2D.OBJ|C:\USERS\JJURADO\DOCUMENTS\MECANICA_OLD\MECANICA\PARTICLES2D CON ESFERA\PARTICLES2D\DEBUG\PARTICLE.OBJ|C:\USERS\JJURADO\DOCUMENTS\MECANICA_OLD\MECANICA\PARTICLES2D CON ESFERA\PARTICLES2D\DEBUG\WINDOW.OBJ
C:\WINDOWS\GLOBALIZATION\SORTING\SORTDEFAULT.NLS
C:\USERS\JJURADO\DOCUMENTS\MECANICA_OLD\MECANICA\DEPS\LIB\SDL2.LIB
C:\USERS\JJURADO\DOCUMENTS\MECANICA_OLD\MECANICA\DEPS\LIB\SDL2MAIN.LIB
C:\PROGRAM FILES (X86)\WINDOWS KITS\8.1\LIB\WINV6.3\UM\X86\OPENGL32.LIB
C:\USERS\JJURADO\DOCUMENTS\MECANICA_OLD\MECANICA\DEPS\LIB\GLEW32.LIB
C:\PROGRAM FILES (X86)\WINDOWS KITS\8.1\LIB\WINV6.3\UM\X86\KERNEL32.LIB
C:\PROGRAM FILES (X86)\WINDOWS KITS\8.1\LIB\WINV6.3\UM\X86\USER32.LIB
C:\PROGRAM FILES (X86)\WINDOWS KITS\8.1\LIB\WINV6.3\UM\X86\GDI32.LIB
C:\PROGRAM FILES (X86)\WINDOWS KITS\8.1\LIB\WINV6.3\UM\X86\WINSPOOL.LIB
C:\PROGRAM FILES (X86)\WINDOWS KITS\8.1\LIB\WINV6.3\UM\X86\COMDLG32.LIB
C:\PROGRAM FILES (X86)\WINDOWS KITS\8.1\LIB\WINV6.3\UM\X86\ADVAPI32.LIB
C:\PROGRAM FILES (X86)\WINDOWS KITS\8.1\LIB\WINV6.3\UM\X86\SHELL32.LIB
C:\PROGRAM FILES (X86)\WINDOWS KITS\8.1\LIB\WINV6.3\UM\X86\OLE32.LIB
C:\PROGRAM FILES (X86)\WINDOWS KITS\8.1\LIB\WINV6.3\UM\X86\OLEAUT32.LIB
C:\PROGRAM FILES (X86)\WINDOWS KITS\8.1\LIB\WINV6.3\UM\X86\UUID.LIB
C:\PROGRAM FILES (X86)\WINDOWS KITS\8.1\LIB\WINV6.3\UM\X86\ODBC32.LIB
C:\PROGRAM FILES (X86)\WINDOWS KITS\8.1\LIB\WINV6.3\UM\X86\ODBCCP32.LIB
C:\USERS\JJURADO\DOCUMENTS\MECANICA_OLD\MECANICA\PARTICLES2D CON ESFERA\PARTICLES2D\DEBUG\ERRORMANAGEMENT.OBJ
C:\USERS\JJURADO\DOCUMENTS\MECANICA_OLD\MECANICA\PARTICLES2D CON ESFERA\PARTICLES2D\DEBUG\FPSLIMITER.OBJ
C:\USERS\JJURADO\DOCUMENTS\MECANICA_OLD\MECANICA\PARTICLES2D CON ESFERA\PARTICLES2D\DEBUG\GAME.OBJ
C:\USERS\JJURADO\DOCUMENTS\MECANICA_OLD\MECANICA\PARTICLES2D CON ESFERA\PARTICLES2D\DEBUG\GEOMETRYPLANE.OBJ
C:\USERS\JJURADO\DOCUMENTS\MECANICA_OLD\MECANICA\PARTICLES2D CON ESFERA\PARTICLES2D\DEBUG\GLSLPROGRAM.OBJ
C:\USERS\JJURADO\DOCUMENTS\MECANICA_OLD\MECANICA\PARTICLES2D CON ESFERA\PARTICLES2D\DEBUG\INPUTMANAGER.OBJ
C:\USERS\JJURADO\DOCUMENTS\MECANICA_OLD\MECANICA\PARTICLES2D CON ESFERA\PARTICLES2D\DEBUG\MAINPART2D.OBJ
C:\USERS\JJURADO\DOCUMENTS\MECANICA_OLD\MECANICA\PARTICLES2D CON ESFERA\PARTICLES2D\DEBUG\PARTICLE.OBJ
C:\USERS\JJURADO\DOCUMENTS\MECANICA_OLD\MECANICA\PARTICLES2D CON ESFERA\PARTICLES2D\DEBUG\WINDOW.OBJ
C:\WINDOWS\SYSTEM32\TZRES.DLL
C:\PROGRAM FILES (X86)\MICROSOFT VISUAL STUDIO 14.0\VC\LIB\MSVCPRTD.LIB
C:\PROGRAM FILES (X86)\MICROSOFT VISUAL STUDIO 14.0\VC\LIB\MSVCRTD.LIB
C:\PROGRAM FILES (X86)\MICROSOFT VISUAL STUDIO 14.0\VC\LIB\OLDNAMES.LIB
C:\PROGRAM FILES (X86)\MICROSOFT VISUAL STUDIO 14.0\VC\LIB\VCRUNTIMED.LIB
C:\PROGRAM FILES (X86)\WINDOWS KITS\10\LIB\10.0.10150.0\UCRT\X86\UCRTD.LIB
C:\PROGRAM FILES (X86)\WINDOWS KITS\8.1\BIN\X86\RC.EXE
C:\PROGRAM FILES (X86)\MICROSOFT VISUAL STUDIO 14.0\VC\BIN\CVTRES.EXE
^C:\USERS\JJURADO\DOCUMENTS\MECANICA_OLD\MECANICA\CUERDA CON ESFERA\PARTICLES2D\DEBUG\ERRORMANAGEMENT.OBJ|C:\USERS\JJURADO\DOCUMENTS\MECANICA_OLD\MECANICA\CUERDA CON ESFERA\PARTICLES2D\DEBUG\FPSLIMITER.OBJ|C:\USERS\JJURADO\DOCUMENTS\MECANICA_OLD\MECANICA\CUERDA CON ESFERA\PARTICLES2D\DEBUG\GAME.OBJ|C:\USERS\JJURADO\DOCUMENTS\MECANICA_OLD\MECANICA\CUERDA CON ESFERA\PARTICLES2D\DEBUG\GEOMETRYPLANE.OBJ|C:\USERS\JJURADO\DOCUMENTS\MECANICA_OLD\MECANICA\CUERDA CON ESFERA\PARTICLES2D\DEBUG\GLSLPROGRAM.OBJ|C:\USERS\JJURADO\DOCUMENTS\MECANICA_OLD\MECANICA\CUERDA CON ESFERA\PARTICLES2D\DEBUG\INPUTMANAGER.OBJ|C:\USERS\JJURADO\DOCUMENTS\MECANICA_OLD\MECANICA\CUERDA CON ESFERA\PARTICLES2D\DEBUG\MAINPART2D.OBJ|C:\USERS\JJURADO\DOCUMENTS\MECANICA_OLD\MECANICA\CUERDA CON ESFERA\PARTICLES2D\DEBUG\PARTICLE.OBJ|C:\USERS\JJURADO\DOCUMENTS\MECANICA_OLD\MECANICA\CUERDA CON ESFERA\PARTICLES2D\DEBUG\WINDOW.OBJ
C:\WINDOWS\GLOBALIZATION\SORTING\SORTDEFAULT.NLS
C:\USERS\JJURADO\DOCUMENTS\MECANICA_OLD\MECANICA\DEPS\LIB\SDL2.LIB
C:\USERS\JJURADO\DOCUMENTS\MECANICA_OLD\MECANICA\DEPS\LIB\SDL2MAIN.LIB
C:\PROGRAM FILES (X86)\WINDOWS KITS\8.1\LIB\WINV6.3\UM\X86\OPENGL32.LIB
C:\USERS\JJURADO\DOCUMENTS\MECANICA_OLD\MECANICA\DEPS\LIB\GLEW32.LIB
C:\PROGRAM FILES (X86)\WINDOWS KITS\8.1\LIB\WINV6.3\UM\X86\KERNEL32.LIB
C:\PROGRAM FILES (X86)\WINDOWS KITS\8.1\LIB\WINV6.3\UM\X86\USER32.LIB
C:\PROGRAM FILES (X86)\WINDOWS KITS\8.1\LIB\WINV6.3\UM\X86\GDI32.LIB
C:\PROGRAM FILES (X86)\WINDOWS KITS\8.1\LIB\WINV6.3\UM\X86\WINSPOOL.LIB
C:\PROGRAM FILES (X86)\WINDOWS KITS\8.1\LIB\WINV6.3\UM\X86\COMDLG32.LIB
C:\PROGRAM FILES (X86)\WINDOWS KITS\8.1\LIB\WINV6.3\UM\X86\ADVAPI32.LIB
C:\PROGRAM FILES (X86)\WINDOWS KITS\8.1\LIB\WINV6.3\UM\X86\SHELL32.LIB
C:\PROGRAM FILES (X86)\WINDOWS KITS\8.1\LIB\WINV6.3\UM\X86\OLE32.LIB
C:\PROGRAM FILES (X86)\WINDOWS KITS\8.1\LIB\WINV6.3\UM\X86\OLEAUT32.LIB
C:\PROGRAM FILES (X86)\WINDOWS KITS\8.1\LIB\WINV6.3\UM\X86\UUID.LIB
C:\PROGRAM FILES (X86)\WINDOWS KITS\8.1\LIB\WINV6.3\UM\X86\ODBC32.LIB
C:\PROGRAM FILES (X86)\WINDOWS KITS\8.1\LIB\WINV6.3\UM\X86\ODBCCP32.LIB
C:\USERS\JJURADO\DOCUMENTS\MECANICA_OLD\MECANICA\CUERDA CON ESFERA\PARTICLES2D\DEBUG\ERRORMANAGEMENT.OBJ
C:\USERS\JJURADO\DOCUMENTS\MECANICA_OLD\MECANICA\CUERDA CON ESFERA\PARTICLES2D\DEBUG\FPSLIMITER.OBJ
C:\USERS\JJURADO\DOCUMENTS\MECANICA_OLD\MECANICA\CUERDA CON ESFERA\PARTICLES2D\DEBUG\GAME.OBJ
C:\USERS\JJURADO\DOCUMENTS\MECANICA_OLD\MECANICA\CUERDA CON ESFERA\PARTICLES2D\DEBUG\GEOMETRYPLANE.OBJ
C:\USERS\JJURADO\DOCUMENTS\MECANICA_OLD\MECANICA\CUERDA CON ESFERA\PARTICLES2D\DEBUG\GLSLPROGRAM.OBJ
C:\USERS\JJURADO\DOCUMENTS\MECANICA_OLD\MECANICA\CUERDA CON ESFERA\PARTICLES2D\DEBUG\INPUTMANAGER.OBJ
C:\USERS\JJURADO\DOCUMENTS\MECANICA_OLD\MECANICA\CUERDA CON ESFERA\PARTICLES2D\DEBUG\MAINPART2D.OBJ
C:\USERS\JJURADO\DOCUMENTS\MECANICA_OLD\MECANICA\CUERDA CON ESFERA\PARTICLES2D\DEBUG\PARTICLE.OBJ
C:\USERS\JJURADO\DOCUMENTS\MECANICA_OLD\MECANICA\CUERDA CON ESFERA\PARTICLES2D\DEBUG\WINDOW.OBJ
C:\WINDOWS\SYSTEM32\TZRES.DLL
C:\PROGRAM FILES (X86)\MICROSOFT VISUAL STUDIO 14.0\VC\LIB\MSVCPRTD.LIB
C:\PROGRAM FILES (X86)\MICROSOFT VISUAL STUDIO 14.0\VC\LIB\MSVCRTD.LIB
C:\PROGRAM FILES (X86)\MICROSOFT VISUAL STUDIO 14.0\VC\LIB\OLDNAMES.LIB
C:\PROGRAM FILES (X86)\MICROSOFT VISUAL STUDIO 14.0\VC\LIB\VCRUNTIMED.LIB
C:\PROGRAM FILES (X86)\WINDOWS KITS\10\LIB\10.0.10150.0\UCRT\X86\UCRTD.LIB
C:\PROGRAM FILES (X86)\WINDOWS KITS\8.1\BIN\X86\RC.EXE
C:\PROGRAM FILES (X86)\MICROSOFT VISUAL STUDIO 14.0\VC\BIN\CVTRES.EXE
^C:\USERS\JJURADO\DOCUMENTS\MECANICA_OLD\MECANICA\ROPA CON ESFERA\PARTICLES2D\DEBUG\ERRORMANAGEMENT.OBJ|C:\USERS\JJURADO\DOCUMENTS\MECANICA_OLD\MECANICA\ROPA CON ESFERA\PARTICLES2D\DEBUG\FPSLIMITER.OBJ|C:\USERS\JJURADO\DOCUMENTS\MECANICA_OLD\MECANICA\ROPA CON ESFERA\PARTICLES2D\DEBUG\GAME.OBJ|C:\USERS\JJURADO\DOCUMENTS\MECANICA_OLD\MECANICA\ROPA CON ESFERA\PARTICLES2D\DEBUG\GEOMETRYPLANE.OBJ|C:\USERS\JJURADO\DOCUMENTS\MECANICA_OLD\MECANICA\ROPA CON ESFERA\PARTICLES2D\DEBUG\GLSLPROGRAM.OBJ|C:\USERS\JJURADO\DOCUMENTS\MECANICA_OLD\MECANICA\ROPA CON ESFERA\PARTICLES2D\DEBUG\INPUTMANAGER.OBJ|C:\USERS\JJURADO\DOCUMENTS\MECANICA_OLD\MECANICA\ROPA CON ESFERA\PARTICLES2D\DEBUG\MAINPART2D.OBJ|C:\USERS\JJURADO\DOCUMENTS\MECANICA_OLD\MECANICA\ROPA CON ESFERA\PARTICLES2D\DEBUG\PARTICLE.OBJ|C:\USERS\JJURADO\DOCUMENTS\MECANICA_OLD\MECANICA\ROPA CON ESFERA\PARTICLES2D\DEBUG\WINDOW.OBJ
C:\WINDOWS\GLOBALIZATION\SORTING\SORTDEFAULT.NLS
C:\USERS\JJURADO\DOCUMENTS\MECANICA_OLD\MECANICA\DEPS\LIB\SDL2.LIB
C:\USERS\JJURADO\DOCUMENTS\MECANICA_OLD\MECANICA\DEPS\LIB\SDL2MAIN.LIB
C:\PROGRAM FILES (X86)\WINDOWS KITS\8.1\LIB\WINV6.3\UM\X86\OPENGL32.LIB
C:\USERS\JJURADO\DOCUMENTS\MECANICA_OLD\MECANICA\DEPS\LIB\GLEW32.LIB
C:\PROGRAM FILES (X86)\WINDOWS KITS\8.1\LIB\WINV6.3\UM\X86\KERNEL32.LIB
C:\PROGRAM FILES (X86)\WINDOWS KITS\8.1\LIB\WINV6.3\UM\X86\USER32.LIB
C:\PROGRAM FILES (X86)\WINDOWS KITS\8.1\LIB\WINV6.3\UM\X86\GDI32.LIB
C:\PROGRAM FILES (X86)\WINDOWS KITS\8.1\LIB\WINV6.3\UM\X86\WINSPOOL.LIB
C:\PROGRAM FILES (X86)\WINDOWS KITS\8.1\LIB\WINV6.3\UM\X86\COMDLG32.LIB
C:\PROGRAM FILES (X86)\WINDOWS KITS\8.1\LIB\WINV6.3\UM\X86\ADVAPI32.LIB
C:\PROGRAM FILES (X86)\WINDOWS KITS\8.1\LIB\WINV6.3\UM\X86\SHELL32.LIB
C:\PROGRAM FILES (X86)\WINDOWS KITS\8.1\LIB\WINV6.3\UM\X86\OLE32.LIB
C:\PROGRAM FILES (X86)\WINDOWS KITS\8.1\LIB\WINV6.3\UM\X86\OLEAUT32.LIB
C:\PROGRAM FILES (X86)\WINDOWS KITS\8.1\LIB\WINV6.3\UM\X86\UUID.LIB
C:\PROGRAM FILES (X86)\WINDOWS KITS\8.1\LIB\WINV6.3\UM\X86\ODBC32.LIB
C:\PROGRAM FILES (X86)\WINDOWS KITS\8.1\LIB\WINV6.3\UM\X86\ODBCCP32.LIB
C:\USERS\JJURADO\DOCUMENTS\MECANICA_OLD\MECANICA\ROPA CON ESFERA\PARTICLES2D\DEBUG\ERRORMANAGEMENT.OBJ
C:\USERS\JJURADO\DOCUMENTS\MECANICA_OLD\MECANICA\ROPA CON ESFERA\PARTICLES2D\DEBUG\FPSLIMITER.OBJ
C:\USERS\JJURADO\DOCUMENTS\MECANICA_OLD\MECANICA\ROPA CON ESFERA\PARTICLES2D\DEBUG\GAME.OBJ
C:\USERS\JJURADO\DOCUMENTS\MECANICA_OLD\MECANICA\ROPA CON ESFERA\PARTICLES2D\DEBUG\GEOMETRYPLANE.OBJ
C:\USERS\JJURADO\DOCUMENTS\MECANICA_OLD\MECANICA\ROPA CON ESFERA\PARTICLES2D\DEBUG\GLSLPROGRAM.OBJ
C:\USERS\JJURADO\DOCUMENTS\MECANICA_OLD\MECANICA\ROPA CON ESFERA\PARTICLES2D\DEBUG\INPUTMANAGER.OBJ
C:\USERS\JJURADO\DOCUMENTS\MECANICA_OLD\MECANICA\ROPA CON ESFERA\PARTICLES2D\DEBUG\MAINPART2D.OBJ
C:\USERS\JJURADO\DOCUMENTS\MECANICA_OLD\MECANICA\ROPA CON ESFERA\PARTICLES2D\DEBUG\PARTICLE.OBJ
C:\USERS\JJURADO\DOCUMENTS\MECANICA_OLD\MECANICA\ROPA CON ESFERA\PARTICLES2D\DEBUG\WINDOW.OBJ
C:\WINDOWS\SYSTEM32\TZRES.DLL
C:\PROGRAM FILES (X86)\MICROSOFT VISUAL STUDIO 14.0\VC\LIB\MSVCPRTD.LIB
C:\PROGRAM FILES (X86)\MICROSOFT VISUAL STUDIO 14.0\VC\LIB\MSVCRTD.LIB
C:\PROGRAM FILES (X86)\MICROSOFT VISUAL STUDIO 14.0\VC\LIB\OLDNAMES.LIB
C:\PROGRAM FILES (X86)\MICROSOFT VISUAL STUDIO 14.0\VC\LIB\VCRUNTIMED.LIB
C:\PROGRAM FILES (X86)\WINDOWS KITS\10\LIB\10.0.10150.0\UCRT\X86\UCRTD.LIB
