#Command: "C:\Program Files (x86)\Microsoft Visual Studio 14.0\VC\bin\link.exe" /ERRORREPORT:PROMPT @C:\Users\vlopez\AppData\Local\Temp\tmpd8b41b65d58647cebe682f77898c9fba.rsp /incremental /nologo /fullbuild
^C:\USERS\VLOPEZ\DESKTOP\PROGRAMMING_TECHNOLOGY\MECANINCA\PARTICLES2D - INITIAL\PARTICLES2D\DEBUG\ERRORMANAGEMENT.OBJ|C:\USERS\VLOPEZ\DESKTOP\PROGRAMMING_TECHNOLOGY\MECANINCA\PARTICLES2D - INITIAL\PARTICLES2D\DEBUG\FPSLIMITER.OBJ|C:\USERS\VLOPEZ\DESKTOP\PROGRAMMING_TECHNOLOGY\MECANINCA\PARTICLES2D - INITIAL\PARTICLES2D\DEBUG\GAME.OBJ|C:\USERS\VLOPEZ\DESKTOP\PROGRAMMING_TECHNOLOGY\MECANINCA\PARTICLES2D - INITIAL\PARTICLES2D\DEBUG\GEOMETRYPLANE.OBJ|C:\USERS\VLOPEZ\DESKTOP\PROGRAMMING_TECHNOLOGY\MECANINCA\PARTICLES2D - INITIAL\PARTICLES2D\DEBUG\GLSLPROGRAM.OBJ|C:\USERS\VLOPEZ\DESKTOP\PROGRAMMING_TECHNOLOGY\MECANINCA\PARTICLES2D - INITIAL\PARTICLES2D\DEBUG\INPUTMANAGER.OBJ|C:\USERS\VLOPEZ\DESKTOP\PROGRAMMING_TECHNOLOGY\MECANINCA\PARTICLES2D - INITIAL\PARTICLES2D\DEBUG\MAINPART2D.OBJ|C:\USERS\VLOPEZ\DESKTOP\PROGRAMMING_TECHNOLOGY\MECANINCA\PARTICLES2D - INITIAL\PARTICLES2D\DEBUG\PARTICLE.OBJ|C:\USERS\VLOPEZ\DESKTOP\PROGRAMMING_TECHNOLOGY\MECANINCA\PARTICLES2D - INITIAL\PARTICLES2D\DEBUG\WINDOW.OBJ
C:\USERS\VLOPEZ\DESKTOP\PROGRAMMING_TECHNOLOGY\MECANINCA\PARTICLES2D - INITIAL\DEBUG\PARTICLES2D.PDB
