^C:\USERS\JJURADO\DOCUMENTS\MECANICA_OLD\MECANICA\PARTICLES2D CON ESFERA\PARTICLES2D\DEBUG\ERRORMANAGEMENT.OBJ|C:\USERS\JJURADO\DOCUMENTS\MECANICA_OLD\MECANICA\PARTICLES2D CON ESFERA\PARTICLES2D\DEBUG\FPSLIMITER.OBJ|C:\USERS\JJURADO\DOCUMENTS\MECANICA_OLD\MECANICA\PARTICLES2D CON ESFERA\PARTICLES2D\DEBUG\GAME.OBJ|C:\USERS\JJURADO\DOCUMENTS\MECANICA_OLD\MECANICA\PARTICLES2D CON ESFERA\PARTICLES2D\DEBUG\GEOMETRYPLANE.OBJ|C:\USERS\JJURADO\DOCUMENTS\MECANICA_OLD\MECANICA\PARTICLES2D CON ESFERA\PARTICLES2D\DEBUG\GLSLPROGRAM.OBJ|C:\USERS\JJURADO\DOCUMENTS\MECANICA_OLD\MECANICA\PARTICLES2D CON ESFERA\PARTICLES2D\DEBUG\INPUTMANAGER.OBJ|C:\USERS\JJURADO\DOCUMENTS\MECANICA_OLD\MECANICA\PARTICLES2D CON ESFERA\PARTICLES2D\DEBUG\MAINPART2D.OBJ|C:\USERS\JJURADO\DOCUMENTS\MECANICA_OLD\MECANICA\PARTICLES2D CON ESFERA\PARTICLES2D\DEBUG\PARTICLE.OBJ|C:\USERS\JJURADO\DOCUMENTS\MECANICA_OLD\MECANICA\PARTICLES2D CON ESFERA\PARTICLES2D\DEBUG\WINDOW.OBJ
C:\USERS\JJURADO\DOCUMENTS\MECANICA_OLD\MECANICA\PARTICLES2D CON ESFERA\DEBUG\PARTICLES2D.ILK
C:\USERS\JJURADO\DOCUMENTS\MECANICA_OLD\MECANICA\PARTICLES2D CON ESFERA\DEBUG\PARTICLES2D.EXE
C:\USERS\JJURADO\DOCUMENTS\MECANICA_OLD\MECANICA\PARTICLES2D CON ESFERA\DEBUG\PARTICLES2D.PDB
^C:\USERS\JJURADO\DOCUMENTS\MECANICA_OLD\MECANICA\CUERDA CON ESFERA\PARTICLES2D\DEBUG\ERRORMANAGEMENT.OBJ|C:\USERS\JJURADO\DOCUMENTS\MECANICA_OLD\MECANICA\CUERDA CON ESFERA\PARTICLES2D\DEBUG\FPSLIMITER.OBJ|C:\USERS\JJURADO\DOCUMENTS\MECANICA_OLD\MECANICA\CUERDA CON ESFERA\PARTICLES2D\DEBUG\GAME.OBJ|C:\USERS\JJURADO\DOCUMENTS\MECANICA_OLD\MECANICA\CUERDA CON ESFERA\PARTICLES2D\DEBUG\GEOMETRYPLANE.OBJ|C:\USERS\JJURADO\DOCUMENTS\MECANICA_OLD\MECANICA\CUERDA CON ESFERA\PARTICLES2D\DEBUG\GLSLPROGRAM.OBJ|C:\USERS\JJURADO\DOCUMENTS\MECANICA_OLD\MECANICA\CUERDA CON ESFERA\PARTICLES2D\DEBUG\INPUTMANAGER.OBJ|C:\USERS\JJURADO\DOCUMENTS\MECANICA_OLD\MECANICA\CUERDA CON ESFERA\PARTICLES2D\DEBUG\MAINPART2D.OBJ|C:\USERS\JJURADO\DOCUMENTS\MECANICA_OLD\MECANICA\CUERDA CON ESFERA\PARTICLES2D\DEBUG\PARTICLE.OBJ|C:\USERS\JJURADO\DOCUMENTS\MECANICA_OLD\MECANICA\CUERDA CON ESFERA\PARTICLES2D\DEBUG\WINDOW.OBJ
C:\USERS\JJURADO\DOCUMENTS\MECANICA_OLD\MECANICA\CUERDA CON ESFERA\DEBUG\PARTICLES2D.ILK
C:\USERS\JJURADO\DOCUMENTS\MECANICA_OLD\MECANICA\CUERDA CON ESFERA\DEBUG\PARTICLES2D.EXE
C:\USERS\JJURADO\DOCUMENTS\MECANICA_OLD\MECANICA\CUERDA CON ESFERA\DEBUG\PARTICLES2D.PDB
^C:\USERS\JJURADO\DOCUMENTS\MECANICA_OLD\MECANICA\ROPA CON ESFERA\PARTICLES2D\DEBUG\ERRORMANAGEMENT.OBJ|C:\USERS\JJURADO\DOCUMENTS\MECANICA_OLD\MECANICA\ROPA CON ESFERA\PARTICLES2D\DEBUG\FPSLIMITER.OBJ|C:\USERS\JJURADO\DOCUMENTS\MECANICA_OLD\MECANICA\ROPA CON ESFERA\PARTICLES2D\DEBUG\GAME.OBJ|C:\USERS\JJURADO\DOCUMENTS\MECANICA_OLD\MECANICA\ROPA CON ESFERA\PARTICLES2D\DEBUG\GEOMETRYPLANE.OBJ|C:\USERS\JJURADO\DOCUMENTS\MECANICA_OLD\MECANICA\ROPA CON ESFERA\PARTICLES2D\DEBUG\GLSLPROGRAM.OBJ|C:\USERS\JJURADO\DOCUMENTS\MECANICA_OLD\MECANICA\ROPA CON ESFERA\PARTICLES2D\DEBUG\INPUTMANAGER.OBJ|C:\USERS\JJURADO\DOCUMENTS\MECANICA_OLD\MECANICA\ROPA CON ESFERA\PARTICLES2D\DEBUG\MAINPART2D.OBJ|C:\USERS\JJURADO\DOCUMENTS\MECANICA_OLD\MECANICA\ROPA CON ESFERA\PARTICLES2D\DEBUG\PARTICLE.OBJ|C:\USERS\JJURADO\DOCUMENTS\MECANICA_OLD\MECANICA\ROPA CON ESFERA\PARTICLES2D\DEBUG\WINDOW.OBJ
C:\USERS\JJURADO\DOCUMENTS\MECANICA_OLD\MECANICA\ROPA CON ESFERA\DEBUG\PARTICLES2D.ILK
C:\USERS\JJURADO\DOCUMENTS\MECANICA_OLD\MECANICA\ROPA CON ESFERA\DEBUG\PARTICLES2D.EXE
C:\USERS\JJURADO\DOCUMENTS\MECANICA_OLD\MECANICA\ROPA CON ESFERA\DEBUG\PARTICLES2D.PDB
