^C:\USERS\JJURADO\DOCUMENTS\VISUAL STUDIO 2015\PROJECTS\MECANICA\FREEFORMDEF - INITIAL\FREEFORMDEF\DEBUG\MAINMESHTEST.OBJ|C:\USERS\JJURADO\DOCUMENTS\VISUAL STUDIO 2015\PROJECTS\MECANICA\FREEFORMDEF - INITIAL\FREEFORMDEF\DEBUG\MESH.OBJ
C:\USERS\JJURADO\DOCUMENTS\VISUAL STUDIO 2015\PROJECTS\MECANICA\FREEFORMDEF - INITIAL\DEBUG\FREEFORMDEF.ILK
C:\USERS\JJURADO\DOCUMENTS\VISUAL STUDIO 2015\PROJECTS\MECANICA\FREEFORMDEF - INITIAL\DEBUG\FREEFORMDEF.EXE
C:\USERS\JJURADO\DOCUMENTS\VISUAL STUDIO 2015\PROJECTS\MECANICA\FREEFORMDEF - INITIAL\DEBUG\FREEFORMDEF.PDB
^C:\USERS\JJURADO\DOCUMENTS\MECANICA_OLD\MECANICA\FREEFORMDEF - INITIAL\FREEFORMDEF\DEBUG\MAINMESHTEST.OBJ|C:\USERS\JJURADO\DOCUMENTS\MECANICA_OLD\MECANICA\FREEFORMDEF - INITIAL\FREEFORMDEF\DEBUG\MESH.OBJ
C:\USERS\JJURADO\DOCUMENTS\MECANICA_OLD\MECANICA\FREEFORMDEF - INITIAL\DEBUG\FREEFORMDEF.ILK
C:\USERS\JJURADO\DOCUMENTS\MECANICA_OLD\MECANICA\FREEFORMDEF - INITIAL\DEBUG\FREEFORMDEF.EXE
C:\USERS\JJURADO\DOCUMENTS\MECANICA_OLD\MECANICA\FREEFORMDEF - INITIAL\DEBUG\FREEFORMDEF.PDB
