#Command: "C:\Program Files (x86)\Microsoft Visual Studio 14.0\VC\bin\link.exe" /ERRORREPORT:PROMPT @C:\Users\jjurado\AppData\Local\Temp\tmpb1510c8152854e16adbceedbe4844c78.rsp /incremental /nologo /fullbuild
^C:\USERS\JJURADO\DOCUMENTS\VISUAL STUDIO 2015\PROJECTS\MECANICA\PARTICLES2D - INITIAL\PARTICLES2D\DEBUG\ERRORMANAGEMENT.OBJ|C:\USERS\JJURADO\DOCUMENTS\VISUAL STUDIO 2015\PROJECTS\MECANICA\PARTICLES2D - INITIAL\PARTICLES2D\DEBUG\FPSLIMITER.OBJ|C:\USERS\JJURADO\DOCUMENTS\VISUAL STUDIO 2015\PROJECTS\MECANICA\PARTICLES2D - INITIAL\PARTICLES2D\DEBUG\GAME.OBJ|C:\USERS\JJURADO\DOCUMENTS\VISUAL STUDIO 2015\PROJECTS\MECANICA\PARTICLES2D - INITIAL\PARTICLES2D\DEBUG\GEOMETRYPLANE.OBJ|C:\USERS\JJURADO\DOCUMENTS\VISUAL STUDIO 2015\PROJECTS\MECANICA\PARTICLES2D - INITIAL\PARTICLES2D\DEBUG\GLSLPROGRAM.OBJ|C:\USERS\JJURADO\DOCUMENTS\VISUAL STUDIO 2015\PROJECTS\MECANICA\PARTICLES2D - INITIAL\PARTICLES2D\DEBUG\INPUTMANAGER.OBJ|C:\USERS\JJURADO\DOCUMENTS\VISUAL STUDIO 2015\PROJECTS\MECANICA\PARTICLES2D - INITIAL\PARTICLES2D\DEBUG\MAINPART2D.OBJ|C:\USERS\JJURADO\DOCUMENTS\VISUAL STUDIO 2015\PROJECTS\MECANICA\PARTICLES2D - INITIAL\PARTICLES2D\DEBUG\PARTICLE.OBJ|C:\USERS\JJURADO\DOCUMENTS\VISUAL STUDIO 2015\PROJECTS\MECANICA\PARTICLES2D - INITIAL\PARTICLES2D\DEBUG\WINDOW.OBJ
C:\USERS\JJURADO\DOCUMENTS\VISUAL STUDIO 2015\PROJECTS\MECANICA\PARTICLES2D - INITIAL\DEBUG\PARTICLES2D.PDB
