^C:\USERS\JJURADO\DOCUMENTS\VISUAL STUDIO 2015\PROJECTS\MECANICA\PARTICLES INICIAL\PARTICLES_INI\GEOMETRYPLANE.CPP
/c /ZI /nologo /W3 /WX- /sdl /Od /D _MBCS /Gm /EHsc /RTC1 /MDd /GS /fp:precise /Zc:wchar_t /Zc:forScope /Zc:inline /Fo"X64\DEBUG\\" /Fd"X64\DEBUG\VC140.PDB" /Gd /TP C:\USERS\JJURADO\DOCUMENTS\VISUAL STUDIO 2015\PROJECTS\MECANICA\PARTICLES INICIAL\PARTICLES_INI\GEOMETRYPLANE.CPP
^C:\USERS\JJURADO\DOCUMENTS\VISUAL STUDIO 2015\PROJECTS\MECANICA\PARTICLES INICIAL\PARTICLES_INI\MAIN.CPP
/c /ZI /nologo /W3 /WX- /sdl /Od /D _MBCS /Gm /EHsc /RTC1 /MDd /GS /fp:precise /Zc:wchar_t /Zc:forScope /Zc:inline /Fo"X64\DEBUG\\" /Fd"X64\DEBUG\VC140.PDB" /Gd /TP C:\USERS\JJURADO\DOCUMENTS\VISUAL STUDIO 2015\PROJECTS\MECANICA\PARTICLES INICIAL\PARTICLES_INI\MAIN.CPP
^C:\USERS\JJURADO\DOCUMENTS\VISUAL STUDIO 2015\PROJECTS\MECANICA\PARTICLES INICIAL\PARTICLES_INI\PARTICLE.CPP
/c /ZI /nologo /W3 /WX- /sdl /Od /D _MBCS /Gm /EHsc /RTC1 /MDd /GS /fp:precise /Zc:wchar_t /Zc:forScope /Zc:inline /Fo"X64\DEBUG\\" /Fd"X64\DEBUG\VC140.PDB" /Gd /TP C:\USERS\JJURADO\DOCUMENTS\VISUAL STUDIO 2015\PROJECTS\MECANICA\PARTICLES INICIAL\PARTICLES_INI\PARTICLE.CPP
