^C:\USERS\JJURADO\DOCUMENTS\VISUAL STUDIO 2015\PROJECTS\MECANICA\PARTICLES INICIAL\PARTICLES_INI\DEBUG\GEOMETRYPLANE.OBJ|C:\USERS\JJURADO\DOCUMENTS\VISUAL STUDIO 2015\PROJECTS\MECANICA\PARTICLES INICIAL\PARTICLES_INI\DEBUG\MAIN.OBJ|C:\USERS\JJURADO\DOCUMENTS\VISUAL STUDIO 2015\PROJECTS\MECANICA\PARTICLES INICIAL\PARTICLES_INI\DEBUG\PARTICLE.OBJ
/OUT:"C:\USERS\JJURADO\DOCUMENTS\VISUAL STUDIO 2015\PROJECTS\MECANICA\PARTICLES INICIAL\DEBUG\PARTICLES_INI.EXE" /INCREMENTAL /NOLOGO KERNEL32.LIB USER32.LIB GDI32.LIB WINSPOOL.LIB COMDLG32.LIB ADVAPI32.LIB SHELL32.LIB OLE32.LIB OLEAUT32.LIB UUID.LIB ODBC32.LIB ODBCCP32.LIB /MANIFEST /MANIFESTUAC:"level='asInvoker' uiAccess='false'" /manifest:embed /DEBUG:FASTLINK /PDB:"C:\USERS\JJURADO\DOCUMENTS\VISUAL STUDIO 2015\PROJECTS\MECANICA\PARTICLES INICIAL\DEBUG\PARTICLES_INI.PDB" /TLBID:1 /DYNAMICBASE /NXCOMPAT /IMPLIB:"C:\USERS\JJURADO\DOCUMENTS\VISUAL STUDIO 2015\PROJECTS\MECANICA\PARTICLES INICIAL\DEBUG\PARTICLES_INI.LIB" /MACHINE:X86 DEBUG\GEOMETRYPLANE.OBJDEBUG\MAIN.OBJDEBUG\PARTICLE.OBJ
^C:\USERS\JJURADO\DOCUMENTS\MECANICA_OLD\MECANICA\PARTICLES INICIAL\PARTICLES_INI\DEBUG\GEOMETRYPLANE.OBJ|C:\USERS\JJURADO\DOCUMENTS\MECANICA_OLD\MECANICA\PARTICLES INICIAL\PARTICLES_INI\DEBUG\MAIN.OBJ|C:\USERS\JJURADO\DOCUMENTS\MECANICA_OLD\MECANICA\PARTICLES INICIAL\PARTICLES_INI\DEBUG\PARTICLE.OBJ
/OUT:"C:\USERS\JJURADO\DOCUMENTS\MECANICA_OLD\MECANICA\PARTICLES INICIAL\DEBUG\PARTICLES_INI.EXE" /INCREMENTAL /NOLOGO KERNEL32.LIB USER32.LIB GDI32.LIB WINSPOOL.LIB COMDLG32.LIB ADVAPI32.LIB SHELL32.LIB OLE32.LIB OLEAUT32.LIB UUID.LIB ODBC32.LIB ODBCCP32.LIB /MANIFEST /MANIFESTUAC:"level='asInvoker' uiAccess='false'" /manifest:embed /DEBUG:FASTLINK /PDB:"C:\USERS\JJURADO\DOCUMENTS\MECANICA_OLD\MECANICA\PARTICLES INICIAL\DEBUG\PARTICLES_INI.PDB" /TLBID:1 /DYNAMICBASE /NXCOMPAT /IMPLIB:"C:\USERS\JJURADO\DOCUMENTS\MECANICA_OLD\MECANICA\PARTICLES INICIAL\DEBUG\PARTICLES_INI.LIB" /MACHINE:X86 DEBUG\GEOMETRYPLANE.OBJDEBUG\MAIN.OBJDEBUG\PARTICLE.OBJ
