^C:\USERS\VLOPEZ\DESKTOP\PROGRAMMING_TECHNOLOGY\MECANINCA\PARTICLES2D - INITIAL\PARTICLES2D\ERRORMANAGEMENT.CPP
/c /I"C:\USERS\VLOPEZ\DESKTOP\PROGRAMMING_TECHNOLOGY\MECANINCA\PARTICLES2D - INITIAL\\..\DEPS\INCLUDE" /ZI /nologo /W3 /WX- /sdl /Od /Oy- /D WIN32 /D _MBCS /D _MBCS /Gm /EHsc /RTC1 /MDd /GS /fp:precise /Zc:wchar_t /Zc:forScope /Zc:inline /Fo"DEBUG\\" /Fd"DEBUG\VC140.PDB" /Gd /TP /analyze- C:\USERS\VLOPEZ\DESKTOP\PROGRAMMING_TECHNOLOGY\MECANINCA\PARTICLES2D - INITIAL\PARTICLES2D\ERRORMANAGEMENT.CPP
^C:\USERS\VLOPEZ\DESKTOP\PROGRAMMING_TECHNOLOGY\MECANINCA\PARTICLES2D - INITIAL\PARTICLES2D\FPSLIMITER.CPP
/c /I"C:\USERS\VLOPEZ\DESKTOP\PROGRAMMING_TECHNOLOGY\MECANINCA\PARTICLES2D - INITIAL\\..\DEPS\INCLUDE" /ZI /nologo /W3 /WX- /sdl /Od /Oy- /D WIN32 /D _MBCS /D _MBCS /Gm /EHsc /RTC1 /MDd /GS /fp:precise /Zc:wchar_t /Zc:forScope /Zc:inline /Fo"DEBUG\\" /Fd"DEBUG\VC140.PDB" /Gd /TP /analyze- C:\USERS\VLOPEZ\DESKTOP\PROGRAMMING_TECHNOLOGY\MECANINCA\PARTICLES2D - INITIAL\PARTICLES2D\FPSLIMITER.CPP
^C:\USERS\VLOPEZ\DESKTOP\PROGRAMMING_TECHNOLOGY\MECANINCA\PARTICLES2D - INITIAL\PARTICLES2D\GAME.CPP
/c /I"C:\USERS\VLOPEZ\DESKTOP\PROGRAMMING_TECHNOLOGY\MECANINCA\PARTICLES2D - INITIAL\\..\DEPS\INCLUDE" /ZI /nologo /W3 /WX- /sdl /Od /Oy- /D WIN32 /D _MBCS /D _MBCS /Gm /EHsc /RTC1 /MDd /GS /fp:precise /Zc:wchar_t /Zc:forScope /Zc:inline /Fo"DEBUG\\" /Fd"DEBUG\VC140.PDB" /Gd /TP /analyze- C:\USERS\VLOPEZ\DESKTOP\PROGRAMMING_TECHNOLOGY\MECANINCA\PARTICLES2D - INITIAL\PARTICLES2D\GAME.CPP
^C:\USERS\VLOPEZ\DESKTOP\PROGRAMMING_TECHNOLOGY\MECANINCA\PARTICLES2D - INITIAL\PARTICLES2D\GEOMETRYPLANE.CPP
/c /I"C:\USERS\VLOPEZ\DESKTOP\PROGRAMMING_TECHNOLOGY\MECANINCA\PARTICLES2D - INITIAL\\..\DEPS\INCLUDE" /ZI /nologo /W3 /WX- /sdl /Od /Oy- /D WIN32 /D _MBCS /D _MBCS /Gm /EHsc /RTC1 /MDd /GS /fp:precise /Zc:wchar_t /Zc:forScope /Zc:inline /Fo"DEBUG\\" /Fd"DEBUG\VC140.PDB" /Gd /TP /analyze- C:\USERS\VLOPEZ\DESKTOP\PROGRAMMING_TECHNOLOGY\MECANINCA\PARTICLES2D - INITIAL\PARTICLES2D\GEOMETRYPLANE.CPP
^C:\USERS\VLOPEZ\DESKTOP\PROGRAMMING_TECHNOLOGY\MECANINCA\PARTICLES2D - INITIAL\PARTICLES2D\GLSLPROGRAM.CPP
/c /I"C:\USERS\VLOPEZ\DESKTOP\PROGRAMMING_TECHNOLOGY\MECANINCA\PARTICLES2D - INITIAL\\..\DEPS\INCLUDE" /ZI /nologo /W3 /WX- /sdl /Od /Oy- /D WIN32 /D _MBCS /D _MBCS /Gm /EHsc /RTC1 /MDd /GS /fp:precise /Zc:wchar_t /Zc:forScope /Zc:inline /Fo"DEBUG\\" /Fd"DEBUG\VC140.PDB" /Gd /TP /analyze- C:\USERS\VLOPEZ\DESKTOP\PROGRAMMING_TECHNOLOGY\MECANINCA\PARTICLES2D - INITIAL\PARTICLES2D\GLSLPROGRAM.CPP
^C:\USERS\VLOPEZ\DESKTOP\PROGRAMMING_TECHNOLOGY\MECANINCA\PARTICLES2D - INITIAL\PARTICLES2D\INPUTMANAGER.CPP
/c /I"C:\USERS\VLOPEZ\DESKTOP\PROGRAMMING_TECHNOLOGY\MECANINCA\PARTICLES2D - INITIAL\\..\DEPS\INCLUDE" /ZI /nologo /W3 /WX- /sdl /Od /Oy- /D WIN32 /D _MBCS /D _MBCS /Gm /EHsc /RTC1 /MDd /GS /fp:precise /Zc:wchar_t /Zc:forScope /Zc:inline /Fo"DEBUG\\" /Fd"DEBUG\VC140.PDB" /Gd /TP /analyze- C:\USERS\VLOPEZ\DESKTOP\PROGRAMMING_TECHNOLOGY\MECANINCA\PARTICLES2D - INITIAL\PARTICLES2D\INPUTMANAGER.CPP
^C:\USERS\VLOPEZ\DESKTOP\PROGRAMMING_TECHNOLOGY\MECANINCA\PARTICLES2D - INITIAL\PARTICLES2D\MAINPART2D.CPP
/c /I"C:\USERS\VLOPEZ\DESKTOP\PROGRAMMING_TECHNOLOGY\MECANINCA\PARTICLES2D - INITIAL\\..\DEPS\INCLUDE" /ZI /nologo /W3 /WX- /sdl /Od /Oy- /D WIN32 /D _MBCS /D _MBCS /Gm /EHsc /RTC1 /MDd /GS /fp:precise /Zc:wchar_t /Zc:forScope /Zc:inline /Fo"DEBUG\\" /Fd"DEBUG\VC140.PDB" /Gd /TP /analyze- C:\USERS\VLOPEZ\DESKTOP\PROGRAMMING_TECHNOLOGY\MECANINCA\PARTICLES2D - INITIAL\PARTICLES2D\MAINPART2D.CPP
^C:\USERS\VLOPEZ\DESKTOP\PROGRAMMING_TECHNOLOGY\MECANINCA\PARTICLES2D - INITIAL\PARTICLES2D\PARTICLE.CPP
/c /I"C:\USERS\VLOPEZ\DESKTOP\PROGRAMMING_TECHNOLOGY\MECANINCA\PARTICLES2D - INITIAL\\..\DEPS\INCLUDE" /ZI /nologo /W3 /WX- /sdl /Od /Oy- /D WIN32 /D _MBCS /D _MBCS /Gm /EHsc /RTC1 /MDd /GS /fp:precise /Zc:wchar_t /Zc:forScope /Zc:inline /Fo"DEBUG\\" /Fd"DEBUG\VC140.PDB" /Gd /TP /analyze- C:\USERS\VLOPEZ\DESKTOP\PROGRAMMING_TECHNOLOGY\MECANINCA\PARTICLES2D - INITIAL\PARTICLES2D\PARTICLE.CPP
^C:\USERS\VLOPEZ\DESKTOP\PROGRAMMING_TECHNOLOGY\MECANINCA\PARTICLES2D - INITIAL\PARTICLES2D\WINDOW.CPP
/c /I"C:\USERS\VLOPEZ\DESKTOP\PROGRAMMING_TECHNOLOGY\MECANINCA\PARTICLES2D - INITIAL\\..\DEPS\INCLUDE" /ZI /nologo /W3 /WX- /sdl /Od /Oy- /D WIN32 /D _MBCS /D _MBCS /Gm /EHsc /RTC1 /MDd /GS /fp:precise /Zc:wchar_t /Zc:forScope /Zc:inline /Fo"DEBUG\\" /Fd"DEBUG\VC140.PDB" /Gd /TP /analyze- C:\USERS\VLOPEZ\DESKTOP\PROGRAMMING_TECHNOLOGY\MECANINCA\PARTICLES2D - INITIAL\PARTICLES2D\WINDOW.CPP
^C:\USERS\JJURADO\DOCUMENTS\VISUAL STUDIO 2015\PROJECTS\MECANICA\PARTICLES2D - INITIAL\PARTICLES2D\ERRORMANAGEMENT.CPP
/c /I"C:\USERS\JJURADO\DOCUMENTS\VISUAL STUDIO 2015\PROJECTS\MECANICA\PARTICLES2D - INITIAL\\..\DEPS\INCLUDE" /ZI /nologo /W3 /WX- /sdl /Od /Oy- /D WIN32 /D _MBCS /D _MBCS /Gm /EHsc /RTC1 /MDd /GS /fp:precise /Zc:wchar_t /Zc:forScope /Zc:inline /Fo"DEBUG\\" /Fd"DEBUG\VC140.PDB" /Gd /TP /analyze- C:\USERS\JJURADO\DOCUMENTS\VISUAL STUDIO 2015\PROJECTS\MECANICA\PARTICLES2D - INITIAL\PARTICLES2D\ERRORMANAGEMENT.CPP
^C:\USERS\JJURADO\DOCUMENTS\VISUAL STUDIO 2015\PROJECTS\MECANICA\PARTICLES2D - INITIAL\PARTICLES2D\FPSLIMITER.CPP
/c /I"C:\USERS\JJURADO\DOCUMENTS\VISUAL STUDIO 2015\PROJECTS\MECANICA\PARTICLES2D - INITIAL\\..\DEPS\INCLUDE" /ZI /nologo /W3 /WX- /sdl /Od /Oy- /D WIN32 /D _MBCS /D _MBCS /Gm /EHsc /RTC1 /MDd /GS /fp:precise /Zc:wchar_t /Zc:forScope /Zc:inline /Fo"DEBUG\\" /Fd"DEBUG\VC140.PDB" /Gd /TP /analyze- C:\USERS\JJURADO\DOCUMENTS\VISUAL STUDIO 2015\PROJECTS\MECANICA\PARTICLES2D - INITIAL\PARTICLES2D\FPSLIMITER.CPP
^C:\USERS\JJURADO\DOCUMENTS\VISUAL STUDIO 2015\PROJECTS\MECANICA\PARTICLES2D - INITIAL\PARTICLES2D\GAME.CPP
/c /I"C:\USERS\JJURADO\DOCUMENTS\VISUAL STUDIO 2015\PROJECTS\MECANICA\PARTICLES2D - INITIAL\\..\DEPS\INCLUDE" /ZI /nologo /W3 /WX- /sdl /Od /Oy- /D WIN32 /D _MBCS /D _MBCS /Gm /EHsc /RTC1 /MDd /GS /fp:precise /Zc:wchar_t /Zc:forScope /Zc:inline /Fo"DEBUG\\" /Fd"DEBUG\VC140.PDB" /Gd /TP /analyze- C:\USERS\JJURADO\DOCUMENTS\VISUAL STUDIO 2015\PROJECTS\MECANICA\PARTICLES2D - INITIAL\PARTICLES2D\GAME.CPP
^C:\USERS\JJURADO\DOCUMENTS\VISUAL STUDIO 2015\PROJECTS\MECANICA\PARTICLES2D - INITIAL\PARTICLES2D\GEOMETRYPLANE.CPP
/c /I"C:\USERS\JJURADO\DOCUMENTS\VISUAL STUDIO 2015\PROJECTS\MECANICA\PARTICLES2D - INITIAL\\..\DEPS\INCLUDE" /ZI /nologo /W3 /WX- /sdl /Od /Oy- /D WIN32 /D _MBCS /D _MBCS /Gm /EHsc /RTC1 /MDd /GS /fp:precise /Zc:wchar_t /Zc:forScope /Zc:inline /Fo"DEBUG\\" /Fd"DEBUG\VC140.PDB" /Gd /TP /analyze- C:\USERS\JJURADO\DOCUMENTS\VISUAL STUDIO 2015\PROJECTS\MECANICA\PARTICLES2D - INITIAL\PARTICLES2D\GEOMETRYPLANE.CPP
^C:\USERS\JJURADO\DOCUMENTS\VISUAL STUDIO 2015\PROJECTS\MECANICA\PARTICLES2D - INITIAL\PARTICLES2D\GLSLPROGRAM.CPP
/c /I"C:\USERS\JJURADO\DOCUMENTS\VISUAL STUDIO 2015\PROJECTS\MECANICA\PARTICLES2D - INITIAL\\..\DEPS\INCLUDE" /ZI /nologo /W3 /WX- /sdl /Od /Oy- /D WIN32 /D _MBCS /D _MBCS /Gm /EHsc /RTC1 /MDd /GS /fp:precise /Zc:wchar_t /Zc:forScope /Zc:inline /Fo"DEBUG\\" /Fd"DEBUG\VC140.PDB" /Gd /TP /analyze- C:\USERS\JJURADO\DOCUMENTS\VISUAL STUDIO 2015\PROJECTS\MECANICA\PARTICLES2D - INITIAL\PARTICLES2D\GLSLPROGRAM.CPP
^C:\USERS\JJURADO\DOCUMENTS\VISUAL STUDIO 2015\PROJECTS\MECANICA\PARTICLES2D - INITIAL\PARTICLES2D\INPUTMANAGER.CPP
/c /I"C:\USERS\JJURADO\DOCUMENTS\VISUAL STUDIO 2015\PROJECTS\MECANICA\PARTICLES2D - INITIAL\\..\DEPS\INCLUDE" /ZI /nologo /W3 /WX- /sdl /Od /Oy- /D WIN32 /D _MBCS /D _MBCS /Gm /EHsc /RTC1 /MDd /GS /fp:precise /Zc:wchar_t /Zc:forScope /Zc:inline /Fo"DEBUG\\" /Fd"DEBUG\VC140.PDB" /Gd /TP /analyze- C:\USERS\JJURADO\DOCUMENTS\VISUAL STUDIO 2015\PROJECTS\MECANICA\PARTICLES2D - INITIAL\PARTICLES2D\INPUTMANAGER.CPP
^C:\USERS\JJURADO\DOCUMENTS\VISUAL STUDIO 2015\PROJECTS\MECANICA\PARTICLES2D - INITIAL\PARTICLES2D\MAINPART2D.CPP
/c /I"C:\USERS\JJURADO\DOCUMENTS\VISUAL STUDIO 2015\PROJECTS\MECANICA\PARTICLES2D - INITIAL\\..\DEPS\INCLUDE" /ZI /nologo /W3 /WX- /sdl /Od /Oy- /D WIN32 /D _MBCS /D _MBCS /Gm /EHsc /RTC1 /MDd /GS /fp:precise /Zc:wchar_t /Zc:forScope /Zc:inline /Fo"DEBUG\\" /Fd"DEBUG\VC140.PDB" /Gd /TP /analyze- C:\USERS\JJURADO\DOCUMENTS\VISUAL STUDIO 2015\PROJECTS\MECANICA\PARTICLES2D - INITIAL\PARTICLES2D\MAINPART2D.CPP
^C:\USERS\JJURADO\DOCUMENTS\VISUAL STUDIO 2015\PROJECTS\MECANICA\PARTICLES2D - INITIAL\PARTICLES2D\PARTICLE.CPP
/c /I"C:\USERS\JJURADO\DOCUMENTS\VISUAL STUDIO 2015\PROJECTS\MECANICA\PARTICLES2D - INITIAL\\..\DEPS\INCLUDE" /ZI /nologo /W3 /WX- /sdl /Od /Oy- /D WIN32 /D _MBCS /D _MBCS /Gm /EHsc /RTC1 /MDd /GS /fp:precise /Zc:wchar_t /Zc:forScope /Zc:inline /Fo"DEBUG\\" /Fd"DEBUG\VC140.PDB" /Gd /TP /analyze- C:\USERS\JJURADO\DOCUMENTS\VISUAL STUDIO 2015\PROJECTS\MECANICA\PARTICLES2D - INITIAL\PARTICLES2D\PARTICLE.CPP
^C:\USERS\JJURADO\DOCUMENTS\VISUAL STUDIO 2015\PROJECTS\MECANICA\PARTICLES2D - INITIAL\PARTICLES2D\WINDOW.CPP
/c /I"C:\USERS\JJURADO\DOCUMENTS\VISUAL STUDIO 2015\PROJECTS\MECANICA\PARTICLES2D - INITIAL\\..\DEPS\INCLUDE" /ZI /nologo /W3 /WX- /sdl /Od /Oy- /D WIN32 /D _MBCS /D _MBCS /Gm /EHsc /RTC1 /MDd /GS /fp:precise /Zc:wchar_t /Zc:forScope /Zc:inline /Fo"DEBUG\\" /Fd"DEBUG\VC140.PDB" /Gd /TP /analyze- C:\USERS\JJURADO\DOCUMENTS\VISUAL STUDIO 2015\PROJECTS\MECANICA\PARTICLES2D - INITIAL\PARTICLES2D\WINDOW.CPP
^C:\USERS\JJURADO\DOCUMENTS\MECANICA_OLD\MECANICA\PARTICLES2D - INITIAL\PARTICLES2D\ERRORMANAGEMENT.CPP
/c /I"C:\USERS\JJURADO\DOCUMENTS\MECANICA_OLD\MECANICA\PARTICLES2D - INITIAL\\..\DEPS\INCLUDE" /ZI /nologo /W3 /WX- /sdl /Od /Oy- /D WIN32 /D _MBCS /D _MBCS /Gm /EHsc /RTC1 /MDd /GS /fp:precise /Zc:wchar_t /Zc:forScope /Zc:inline /Fo"DEBUG\\" /Fd"DEBUG\VC140.PDB" /Gd /TP /analyze- C:\USERS\JJURADO\DOCUMENTS\MECANICA_OLD\MECANICA\PARTICLES2D - INITIAL\PARTICLES2D\ERRORMANAGEMENT.CPP
^C:\USERS\JJURADO\DOCUMENTS\MECANICA_OLD\MECANICA\PARTICLES2D - INITIAL\PARTICLES2D\FPSLIMITER.CPP
/c /I"C:\USERS\JJURADO\DOCUMENTS\MECANICA_OLD\MECANICA\PARTICLES2D - INITIAL\\..\DEPS\INCLUDE" /ZI /nologo /W3 /WX- /sdl /Od /Oy- /D WIN32 /D _MBCS /D _MBCS /Gm /EHsc /RTC1 /MDd /GS /fp:precise /Zc:wchar_t /Zc:forScope /Zc:inline /Fo"DEBUG\\" /Fd"DEBUG\VC140.PDB" /Gd /TP /analyze- C:\USERS\JJURADO\DOCUMENTS\MECANICA_OLD\MECANICA\PARTICLES2D - INITIAL\PARTICLES2D\FPSLIMITER.CPP
^C:\USERS\JJURADO\DOCUMENTS\MECANICA_OLD\MECANICA\PARTICLES2D - INITIAL\PARTICLES2D\GAME.CPP
/c /I"C:\USERS\JJURADO\DOCUMENTS\MECANICA_OLD\MECANICA\PARTICLES2D - INITIAL\\..\DEPS\INCLUDE" /ZI /nologo /W3 /WX- /sdl /Od /Oy- /D WIN32 /D _MBCS /D _MBCS /Gm /EHsc /RTC1 /MDd /GS /fp:precise /Zc:wchar_t /Zc:forScope /Zc:inline /Fo"DEBUG\\" /Fd"DEBUG\VC140.PDB" /Gd /TP /analyze- C:\USERS\JJURADO\DOCUMENTS\MECANICA_OLD\MECANICA\PARTICLES2D - INITIAL\PARTICLES2D\GAME.CPP
^C:\USERS\JJURADO\DOCUMENTS\MECANICA_OLD\MECANICA\PARTICLES2D - INITIAL\PARTICLES2D\GEOMETRYPLANE.CPP
/c /I"C:\USERS\JJURADO\DOCUMENTS\MECANICA_OLD\MECANICA\PARTICLES2D - INITIAL\\..\DEPS\INCLUDE" /ZI /nologo /W3 /WX- /sdl /Od /Oy- /D WIN32 /D _MBCS /D _MBCS /Gm /EHsc /RTC1 /MDd /GS /fp:precise /Zc:wchar_t /Zc:forScope /Zc:inline /Fo"DEBUG\\" /Fd"DEBUG\VC140.PDB" /Gd /TP /analyze- C:\USERS\JJURADO\DOCUMENTS\MECANICA_OLD\MECANICA\PARTICLES2D - INITIAL\PARTICLES2D\GEOMETRYPLANE.CPP
^C:\USERS\JJURADO\DOCUMENTS\MECANICA_OLD\MECANICA\PARTICLES2D - INITIAL\PARTICLES2D\GLSLPROGRAM.CPP
/c /I"C:\USERS\JJURADO\DOCUMENTS\MECANICA_OLD\MECANICA\PARTICLES2D - INITIAL\\..\DEPS\INCLUDE" /ZI /nologo /W3 /WX- /sdl /Od /Oy- /D WIN32 /D _MBCS /D _MBCS /Gm /EHsc /RTC1 /MDd /GS /fp:precise /Zc:wchar_t /Zc:forScope /Zc:inline /Fo"DEBUG\\" /Fd"DEBUG\VC140.PDB" /Gd /TP /analyze- C:\USERS\JJURADO\DOCUMENTS\MECANICA_OLD\MECANICA\PARTICLES2D - INITIAL\PARTICLES2D\GLSLPROGRAM.CPP
^C:\USERS\JJURADO\DOCUMENTS\MECANICA_OLD\MECANICA\PARTICLES2D - INITIAL\PARTICLES2D\INPUTMANAGER.CPP
/c /I"C:\USERS\JJURADO\DOCUMENTS\MECANICA_OLD\MECANICA\PARTICLES2D - INITIAL\\..\DEPS\INCLUDE" /ZI /nologo /W3 /WX- /sdl /Od /Oy- /D WIN32 /D _MBCS /D _MBCS /Gm /EHsc /RTC1 /MDd /GS /fp:precise /Zc:wchar_t /Zc:forScope /Zc:inline /Fo"DEBUG\\" /Fd"DEBUG\VC140.PDB" /Gd /TP /analyze- C:\USERS\JJURADO\DOCUMENTS\MECANICA_OLD\MECANICA\PARTICLES2D - INITIAL\PARTICLES2D\INPUTMANAGER.CPP
^C:\USERS\JJURADO\DOCUMENTS\MECANICA_OLD\MECANICA\PARTICLES2D - INITIAL\PARTICLES2D\MAINPART2D.CPP
/c /I"C:\USERS\JJURADO\DOCUMENTS\MECANICA_OLD\MECANICA\PARTICLES2D - INITIAL\\..\DEPS\INCLUDE" /ZI /nologo /W3 /WX- /sdl /Od /Oy- /D WIN32 /D _MBCS /D _MBCS /Gm /EHsc /RTC1 /MDd /GS /fp:precise /Zc:wchar_t /Zc:forScope /Zc:inline /Fo"DEBUG\\" /Fd"DEBUG\VC140.PDB" /Gd /TP /analyze- C:\USERS\JJURADO\DOCUMENTS\MECANICA_OLD\MECANICA\PARTICLES2D - INITIAL\PARTICLES2D\MAINPART2D.CPP
^C:\USERS\JJURADO\DOCUMENTS\MECANICA_OLD\MECANICA\PARTICLES2D - INITIAL\PARTICLES2D\PARTICLE.CPP
/c /I"C:\USERS\JJURADO\DOCUMENTS\MECANICA_OLD\MECANICA\PARTICLES2D - INITIAL\\..\DEPS\INCLUDE" /ZI /nologo /W3 /WX- /sdl /Od /Oy- /D WIN32 /D _MBCS /D _MBCS /Gm /EHsc /RTC1 /MDd /GS /fp:precise /Zc:wchar_t /Zc:forScope /Zc:inline /Fo"DEBUG\\" /Fd"DEBUG\VC140.PDB" /Gd /TP /analyze- C:\USERS\JJURADO\DOCUMENTS\MECANICA_OLD\MECANICA\PARTICLES2D - INITIAL\PARTICLES2D\PARTICLE.CPP
^C:\USERS\JJURADO\DOCUMENTS\MECANICA_OLD\MECANICA\PARTICLES2D - INITIAL\PARTICLES2D\WINDOW.CPP
/c /I"C:\USERS\JJURADO\DOCUMENTS\MECANICA_OLD\MECANICA\PARTICLES2D - INITIAL\\..\DEPS\INCLUDE" /ZI /nologo /W3 /WX- /sdl /Od /Oy- /D WIN32 /D _MBCS /D _MBCS /Gm /EHsc /RTC1 /MDd /GS /fp:precise /Zc:wchar_t /Zc:forScope /Zc:inline /Fo"DEBUG\\" /Fd"DEBUG\VC140.PDB" /Gd /TP /analyze- C:\USERS\JJURADO\DOCUMENTS\MECANICA_OLD\MECANICA\PARTICLES2D - INITIAL\PARTICLES2D\WINDOW.CPP
^C:\USERS\JJURADO\DOCUMENTS\MECANICA_OLD\MECANICA\PARTICLES2D CON ESFERA\PARTICLES2D\ERRORMANAGEMENT.CPP
/c /I"C:\USERS\JJURADO\DOCUMENTS\MECANICA_OLD\MECANICA\PARTICLES2D CON ESFERA\\..\DEPS\INCLUDE" /ZI /nologo /W3 /WX- /sdl /Od /Oy- /D WIN32 /D _MBCS /D _MBCS /Gm /EHsc /RTC1 /MDd /GS /fp:precise /Zc:wchar_t /Zc:forScope /Zc:inline /Fo"DEBUG\\" /Fd"DEBUG\VC140.PDB" /Gd /TP /analyze- C:\USERS\JJURADO\DOCUMENTS\MECANICA_OLD\MECANICA\PARTICLES2D CON ESFERA\PARTICLES2D\ERRORMANAGEMENT.CPP
^C:\USERS\JJURADO\DOCUMENTS\MECANICA_OLD\MECANICA\PARTICLES2D CON ESFERA\PARTICLES2D\FPSLIMITER.CPP
/c /I"C:\USERS\JJURADO\DOCUMENTS\MECANICA_OLD\MECANICA\PARTICLES2D CON ESFERA\\..\DEPS\INCLUDE" /ZI /nologo /W3 /WX- /sdl /Od /Oy- /D WIN32 /D _MBCS /D _MBCS /Gm /EHsc /RTC1 /MDd /GS /fp:precise /Zc:wchar_t /Zc:forScope /Zc:inline /Fo"DEBUG\\" /Fd"DEBUG\VC140.PDB" /Gd /TP /analyze- C:\USERS\JJURADO\DOCUMENTS\MECANICA_OLD\MECANICA\PARTICLES2D CON ESFERA\PARTICLES2D\FPSLIMITER.CPP
^C:\USERS\JJURADO\DOCUMENTS\MECANICA_OLD\MECANICA\PARTICLES2D CON ESFERA\PARTICLES2D\GAME.CPP
/c /I"C:\USERS\JJURADO\DOCUMENTS\MECANICA_OLD\MECANICA\PARTICLES2D CON ESFERA\\..\DEPS\INCLUDE" /ZI /nologo /W3 /WX- /sdl /Od /Oy- /D WIN32 /D _MBCS /D _MBCS /Gm /EHsc /RTC1 /MDd /GS /fp:precise /Zc:wchar_t /Zc:forScope /Zc:inline /Fo"DEBUG\\" /Fd"DEBUG\VC140.PDB" /Gd /TP /analyze- C:\USERS\JJURADO\DOCUMENTS\MECANICA_OLD\MECANICA\PARTICLES2D CON ESFERA\PARTICLES2D\GAME.CPP
^C:\USERS\JJURADO\DOCUMENTS\MECANICA_OLD\MECANICA\PARTICLES2D CON ESFERA\PARTICLES2D\GEOMETRYPLANE.CPP
/c /I"C:\USERS\JJURADO\DOCUMENTS\MECANICA_OLD\MECANICA\PARTICLES2D CON ESFERA\\..\DEPS\INCLUDE" /ZI /nologo /W3 /WX- /sdl /Od /Oy- /D WIN32 /D _MBCS /D _MBCS /Gm /EHsc /RTC1 /MDd /GS /fp:precise /Zc:wchar_t /Zc:forScope /Zc:inline /Fo"DEBUG\\" /Fd"DEBUG\VC140.PDB" /Gd /TP /analyze- C:\USERS\JJURADO\DOCUMENTS\MECANICA_OLD\MECANICA\PARTICLES2D CON ESFERA\PARTICLES2D\GEOMETRYPLANE.CPP
^C:\USERS\JJURADO\DOCUMENTS\MECANICA_OLD\MECANICA\PARTICLES2D CON ESFERA\PARTICLES2D\GLSLPROGRAM.CPP
/c /I"C:\USERS\JJURADO\DOCUMENTS\MECANICA_OLD\MECANICA\PARTICLES2D CON ESFERA\\..\DEPS\INCLUDE" /ZI /nologo /W3 /WX- /sdl /Od /Oy- /D WIN32 /D _MBCS /D _MBCS /Gm /EHsc /RTC1 /MDd /GS /fp:precise /Zc:wchar_t /Zc:forScope /Zc:inline /Fo"DEBUG\\" /Fd"DEBUG\VC140.PDB" /Gd /TP /analyze- C:\USERS\JJURADO\DOCUMENTS\MECANICA_OLD\MECANICA\PARTICLES2D CON ESFERA\PARTICLES2D\GLSLPROGRAM.CPP
^C:\USERS\JJURADO\DOCUMENTS\MECANICA_OLD\MECANICA\PARTICLES2D CON ESFERA\PARTICLES2D\INPUTMANAGER.CPP
/c /I"C:\USERS\JJURADO\DOCUMENTS\MECANICA_OLD\MECANICA\PARTICLES2D CON ESFERA\\..\DEPS\INCLUDE" /ZI /nologo /W3 /WX- /sdl /Od /Oy- /D WIN32 /D _MBCS /D _MBCS /Gm /EHsc /RTC1 /MDd /GS /fp:precise /Zc:wchar_t /Zc:forScope /Zc:inline /Fo"DEBUG\\" /Fd"DEBUG\VC140.PDB" /Gd /TP /analyze- C:\USERS\JJURADO\DOCUMENTS\MECANICA_OLD\MECANICA\PARTICLES2D CON ESFERA\PARTICLES2D\INPUTMANAGER.CPP
^C:\USERS\JJURADO\DOCUMENTS\MECANICA_OLD\MECANICA\PARTICLES2D CON ESFERA\PARTICLES2D\MAINPART2D.CPP
/c /I"C:\USERS\JJURADO\DOCUMENTS\MECANICA_OLD\MECANICA\PARTICLES2D CON ESFERA\\..\DEPS\INCLUDE" /ZI /nologo /W3 /WX- /sdl /Od /Oy- /D WIN32 /D _MBCS /D _MBCS /Gm /EHsc /RTC1 /MDd /GS /fp:precise /Zc:wchar_t /Zc:forScope /Zc:inline /Fo"DEBUG\\" /Fd"DEBUG\VC140.PDB" /Gd /TP /analyze- C:\USERS\JJURADO\DOCUMENTS\MECANICA_OLD\MECANICA\PARTICLES2D CON ESFERA\PARTICLES2D\MAINPART2D.CPP
^C:\USERS\JJURADO\DOCUMENTS\MECANICA_OLD\MECANICA\PARTICLES2D CON ESFERA\PARTICLES2D\PARTICLE.CPP
/c /I"C:\USERS\JJURADO\DOCUMENTS\MECANICA_OLD\MECANICA\PARTICLES2D CON ESFERA\\..\DEPS\INCLUDE" /ZI /nologo /W3 /WX- /sdl /Od /Oy- /D WIN32 /D _MBCS /D _MBCS /Gm /EHsc /RTC1 /MDd /GS /fp:precise /Zc:wchar_t /Zc:forScope /Zc:inline /Fo"DEBUG\\" /Fd"DEBUG\VC140.PDB" /Gd /TP /analyze- C:\USERS\JJURADO\DOCUMENTS\MECANICA_OLD\MECANICA\PARTICLES2D CON ESFERA\PARTICLES2D\PARTICLE.CPP
^C:\USERS\JJURADO\DOCUMENTS\MECANICA_OLD\MECANICA\PARTICLES2D CON ESFERA\PARTICLES2D\WINDOW.CPP
/c /I"C:\USERS\JJURADO\DOCUMENTS\MECANICA_OLD\MECANICA\PARTICLES2D CON ESFERA\\..\DEPS\INCLUDE" /ZI /nologo /W3 /WX- /sdl /Od /Oy- /D WIN32 /D _MBCS /D _MBCS /Gm /EHsc /RTC1 /MDd /GS /fp:precise /Zc:wchar_t /Zc:forScope /Zc:inline /Fo"DEBUG\\" /Fd"DEBUG\VC140.PDB" /Gd /TP /analyze- C:\USERS\JJURADO\DOCUMENTS\MECANICA_OLD\MECANICA\PARTICLES2D CON ESFERA\PARTICLES2D\WINDOW.CPP
^C:\USERS\JJURADO\DOCUMENTS\MECANICA_PRACTICAS\MECANICA\PARTICLES2D CON ESFERA\PARTICLES2D\ERRORMANAGEMENT.CPP
/c /I"C:\USERS\JJURADO\DOCUMENTS\MECANICA_PRACTICAS\MECANICA\PARTICLES2D CON ESFERA\\..\DEPS\INCLUDE" /ZI /nologo /W3 /WX- /sdl /Od /Oy- /D WIN32 /D _MBCS /D _MBCS /Gm /EHsc /RTC1 /MDd /GS /fp:precise /Zc:wchar_t /Zc:forScope /Zc:inline /Fo"DEBUG\\" /Fd"DEBUG\VC140.PDB" /Gd /TP /analyze- C:\USERS\JJURADO\DOCUMENTS\MECANICA_PRACTICAS\MECANICA\PARTICLES2D CON ESFERA\PARTICLES2D\ERRORMANAGEMENT.CPP
^C:\USERS\JJURADO\DOCUMENTS\MECANICA_PRACTICAS\MECANICA\PARTICLES2D CON ESFERA\PARTICLES2D\FPSLIMITER.CPP
/c /I"C:\USERS\JJURADO\DOCUMENTS\MECANICA_PRACTICAS\MECANICA\PARTICLES2D CON ESFERA\\..\DEPS\INCLUDE" /ZI /nologo /W3 /WX- /sdl /Od /Oy- /D WIN32 /D _MBCS /D _MBCS /Gm /EHsc /RTC1 /MDd /GS /fp:precise /Zc:wchar_t /Zc:forScope /Zc:inline /Fo"DEBUG\\" /Fd"DEBUG\VC140.PDB" /Gd /TP /analyze- C:\USERS\JJURADO\DOCUMENTS\MECANICA_PRACTICAS\MECANICA\PARTICLES2D CON ESFERA\PARTICLES2D\FPSLIMITER.CPP
^C:\USERS\JJURADO\DOCUMENTS\MECANICA_PRACTICAS\MECANICA\PARTICLES2D CON ESFERA\PARTICLES2D\GAME.CPP
/c /I"C:\USERS\JJURADO\DOCUMENTS\MECANICA_PRACTICAS\MECANICA\PARTICLES2D CON ESFERA\\..\DEPS\INCLUDE" /ZI /nologo /W3 /WX- /sdl /Od /Oy- /D WIN32 /D _MBCS /D _MBCS /Gm /EHsc /RTC1 /MDd /GS /fp:precise /Zc:wchar_t /Zc:forScope /Zc:inline /Fo"DEBUG\\" /Fd"DEBUG\VC140.PDB" /Gd /TP /analyze- C:\USERS\JJURADO\DOCUMENTS\MECANICA_PRACTICAS\MECANICA\PARTICLES2D CON ESFERA\PARTICLES2D\GAME.CPP
^C:\USERS\JJURADO\DOCUMENTS\MECANICA_PRACTICAS\MECANICA\PARTICLES2D CON ESFERA\PARTICLES2D\GEOMETRYPLANE.CPP
/c /I"C:\USERS\JJURADO\DOCUMENTS\MECANICA_PRACTICAS\MECANICA\PARTICLES2D CON ESFERA\\..\DEPS\INCLUDE" /ZI /nologo /W3 /WX- /sdl /Od /Oy- /D WIN32 /D _MBCS /D _MBCS /Gm /EHsc /RTC1 /MDd /GS /fp:precise /Zc:wchar_t /Zc:forScope /Zc:inline /Fo"DEBUG\\" /Fd"DEBUG\VC140.PDB" /Gd /TP /analyze- C:\USERS\JJURADO\DOCUMENTS\MECANICA_PRACTICAS\MECANICA\PARTICLES2D CON ESFERA\PARTICLES2D\GEOMETRYPLANE.CPP
^C:\USERS\JJURADO\DOCUMENTS\MECANICA_PRACTICAS\MECANICA\PARTICLES2D CON ESFERA\PARTICLES2D\GLSLPROGRAM.CPP
/c /I"C:\USERS\JJURADO\DOCUMENTS\MECANICA_PRACTICAS\MECANICA\PARTICLES2D CON ESFERA\\..\DEPS\INCLUDE" /ZI /nologo /W3 /WX- /sdl /Od /Oy- /D WIN32 /D _MBCS /D _MBCS /Gm /EHsc /RTC1 /MDd /GS /fp:precise /Zc:wchar_t /Zc:forScope /Zc:inline /Fo"DEBUG\\" /Fd"DEBUG\VC140.PDB" /Gd /TP /analyze- C:\USERS\JJURADO\DOCUMENTS\MECANICA_PRACTICAS\MECANICA\PARTICLES2D CON ESFERA\PARTICLES2D\GLSLPROGRAM.CPP
^C:\USERS\JJURADO\DOCUMENTS\MECANICA_PRACTICAS\MECANICA\PARTICLES2D CON ESFERA\PARTICLES2D\INPUTMANAGER.CPP
/c /I"C:\USERS\JJURADO\DOCUMENTS\MECANICA_PRACTICAS\MECANICA\PARTICLES2D CON ESFERA\\..\DEPS\INCLUDE" /ZI /nologo /W3 /WX- /sdl /Od /Oy- /D WIN32 /D _MBCS /D _MBCS /Gm /EHsc /RTC1 /MDd /GS /fp:precise /Zc:wchar_t /Zc:forScope /Zc:inline /Fo"DEBUG\\" /Fd"DEBUG\VC140.PDB" /Gd /TP /analyze- C:\USERS\JJURADO\DOCUMENTS\MECANICA_PRACTICAS\MECANICA\PARTICLES2D CON ESFERA\PARTICLES2D\INPUTMANAGER.CPP
^C:\USERS\JJURADO\DOCUMENTS\MECANICA_PRACTICAS\MECANICA\PARTICLES2D CON ESFERA\PARTICLES2D\MAINPART2D.CPP
/c /I"C:\USERS\JJURADO\DOCUMENTS\MECANICA_PRACTICAS\MECANICA\PARTICLES2D CON ESFERA\\..\DEPS\INCLUDE" /ZI /nologo /W3 /WX- /sdl /Od /Oy- /D WIN32 /D _MBCS /D _MBCS /Gm /EHsc /RTC1 /MDd /GS /fp:precise /Zc:wchar_t /Zc:forScope /Zc:inline /Fo"DEBUG\\" /Fd"DEBUG\VC140.PDB" /Gd /TP /analyze- C:\USERS\JJURADO\DOCUMENTS\MECANICA_PRACTICAS\MECANICA\PARTICLES2D CON ESFERA\PARTICLES2D\MAINPART2D.CPP
^C:\USERS\JJURADO\DOCUMENTS\MECANICA_PRACTICAS\MECANICA\PARTICLES2D CON ESFERA\PARTICLES2D\PARTICLE.CPP
/c /I"C:\USERS\JJURADO\DOCUMENTS\MECANICA_PRACTICAS\MECANICA\PARTICLES2D CON ESFERA\\..\DEPS\INCLUDE" /ZI /nologo /W3 /WX- /sdl /Od /Oy- /D WIN32 /D _MBCS /D _MBCS /Gm /EHsc /RTC1 /MDd /GS /fp:precise /Zc:wchar_t /Zc:forScope /Zc:inline /Fo"DEBUG\\" /Fd"DEBUG\VC140.PDB" /Gd /TP /analyze- C:\USERS\JJURADO\DOCUMENTS\MECANICA_PRACTICAS\MECANICA\PARTICLES2D CON ESFERA\PARTICLES2D\PARTICLE.CPP
^C:\USERS\JJURADO\DOCUMENTS\MECANICA_PRACTICAS\MECANICA\PARTICLES2D CON ESFERA\PARTICLES2D\WINDOW.CPP
/c /I"C:\USERS\JJURADO\DOCUMENTS\MECANICA_PRACTICAS\MECANICA\PARTICLES2D CON ESFERA\\..\DEPS\INCLUDE" /ZI /nologo /W3 /WX- /sdl /Od /Oy- /D WIN32 /D _MBCS /D _MBCS /Gm /EHsc /RTC1 /MDd /GS /fp:precise /Zc:wchar_t /Zc:forScope /Zc:inline /Fo"DEBUG\\" /Fd"DEBUG\VC140.PDB" /Gd /TP /analyze- C:\USERS\JJURADO\DOCUMENTS\MECANICA_PRACTICAS\MECANICA\PARTICLES2D CON ESFERA\PARTICLES2D\WINDOW.CPP
