^C:\USERS\JJURADO\DOCUMENTS\MECANICA_PRACTICAS\MECANICA\PARTICLES2D CON ESFERA\PARTICLES2D\ERRORMANAGEMENT.CPP|C:\USERS\JJURADO\DOCUMENTS\MECANICA_PRACTICAS\MECANICA\PARTICLES2D CON ESFERA\PARTICLES2D\FPSLIMITER.CPP|C:\USERS\JJURADO\DOCUMENTS\MECANICA_PRACTICAS\MECANICA\PARTICLES2D CON ESFERA\PARTICLES2D\GAME.CPP|C:\USERS\JJURADO\DOCUMENTS\MECANICA_PRACTICAS\MECANICA\PARTICLES2D CON ESFERA\PARTICLES2D\GEOMETRYPLANE.CPP|C:\USERS\JJURADO\DOCUMENTS\MECANICA_PRACTICAS\MECANICA\PARTICLES2D CON ESFERA\PARTICLES2D\GLSLPROGRAM.CPP|C:\USERS\JJURADO\DOCUMENTS\MECANICA_PRACTICAS\MECANICA\PARTICLES2D CON ESFERA\PARTICLES2D\INPUTMANAGER.CPP|C:\USERS\JJURADO\DOCUMENTS\MECANICA_PRACTICAS\MECANICA\PARTICLES2D CON ESFERA\PARTICLES2D\MAINPART2D.CPP|C:\USERS\JJURADO\DOCUMENTS\MECANICA_PRACTICAS\MECANICA\PARTICLES2D CON ESFERA\PARTICLES2D\PARTICLE.CPP|C:\USERS\JJURADO\DOCUMENTS\MECANICA_PRACTICAS\MECANICA\PARTICLES2D CON ESFERA\PARTICLES2D\WINDOW.CPP
C:\USERS\JJURADO\DOCUMENTS\MECANICA_PRACTICAS\MECANICA\PARTICLES2D CON ESFERA\PARTICLES2D\DEBUG\VC140.PDB
C:\USERS\JJURADO\DOCUMENTS\MECANICA_PRACTICAS\MECANICA\PARTICLES2D CON ESFERA\PARTICLES2D\DEBUG\VC140.IDB
C:\USERS\JJURADO\DOCUMENTS\MECANICA_PRACTICAS\MECANICA\PARTICLES2D CON ESFERA\PARTICLES2D\DEBUG\ERRORMANAGEMENT.OBJ
C:\USERS\JJURADO\DOCUMENTS\MECANICA_PRACTICAS\MECANICA\PARTICLES2D CON ESFERA\PARTICLES2D\DEBUG\FPSLIMITER.OBJ
C:\USERS\JJURADO\DOCUMENTS\MECANICA_PRACTICAS\MECANICA\PARTICLES2D CON ESFERA\PARTICLES2D\DEBUG\GEOMETRYPLANE.OBJ
C:\USERS\JJURADO\DOCUMENTS\MECANICA_PRACTICAS\MECANICA\PARTICLES2D CON ESFERA\PARTICLES2D\DEBUG\GLSLPROGRAM.OBJ
C:\USERS\JJURADO\DOCUMENTS\MECANICA_PRACTICAS\MECANICA\PARTICLES2D CON ESFERA\PARTICLES2D\DEBUG\INPUTMANAGER.OBJ
C:\USERS\JJURADO\DOCUMENTS\MECANICA_PRACTICAS\MECANICA\PARTICLES2D CON ESFERA\PARTICLES2D\DEBUG\MAINPART2D.OBJ
C:\USERS\JJURADO\DOCUMENTS\MECANICA_PRACTICAS\MECANICA\PARTICLES2D CON ESFERA\PARTICLES2D\DEBUG\PARTICLE.OBJ
C:\USERS\JJURADO\DOCUMENTS\MECANICA_PRACTICAS\MECANICA\PARTICLES2D CON ESFERA\PARTICLES2D\DEBUG\WINDOW.OBJ
^C:\USERS\JJURADO\DOCUMENTS\MECANICA_PRACTICAS\MECANICA\PARTICLES2D CON ESFERA\PARTICLES2D\ERRORMANAGEMENT.CPP
C:\USERS\JJURADO\DOCUMENTS\MECANICA_PRACTICAS\MECANICA\PARTICLES2D CON ESFERA\PARTICLES2D\DEBUG\VC140.PDB
^C:\USERS\JJURADO\DOCUMENTS\MECANICA_PRACTICAS\MECANICA\PARTICLES2D CON ESFERA\PARTICLES2D\FPSLIMITER.CPP
C:\USERS\JJURADO\DOCUMENTS\MECANICA_PRACTICAS\MECANICA\PARTICLES2D CON ESFERA\PARTICLES2D\DEBUG\VC140.PDB
^C:\USERS\JJURADO\DOCUMENTS\MECANICA_PRACTICAS\MECANICA\PARTICLES2D CON ESFERA\PARTICLES2D\GAME.CPP
C:\USERS\JJURADO\DOCUMENTS\MECANICA_PRACTICAS\MECANICA\PARTICLES2D CON ESFERA\PARTICLES2D\DEBUG\VC140.PDB
C:\USERS\JJURADO\DOCUMENTS\MECANICA_PRACTICAS\MECANICA\PARTICLES2D CON ESFERA\PARTICLES2D\DEBUG\VC140.IDB
C:\USERS\JJURADO\DOCUMENTS\MECANICA_PRACTICAS\MECANICA\PARTICLES2D CON ESFERA\PARTICLES2D\DEBUG\GAME.OBJ
^C:\USERS\JJURADO\DOCUMENTS\MECANICA_PRACTICAS\MECANICA\PARTICLES2D CON ESFERA\PARTICLES2D\GEOMETRYPLANE.CPP
C:\USERS\JJURADO\DOCUMENTS\MECANICA_PRACTICAS\MECANICA\PARTICLES2D CON ESFERA\PARTICLES2D\DEBUG\VC140.PDB
^C:\USERS\JJURADO\DOCUMENTS\MECANICA_PRACTICAS\MECANICA\PARTICLES2D CON ESFERA\PARTICLES2D\GLSLPROGRAM.CPP
C:\USERS\JJURADO\DOCUMENTS\MECANICA_PRACTICAS\MECANICA\PARTICLES2D CON ESFERA\PARTICLES2D\DEBUG\VC140.PDB
^C:\USERS\JJURADO\DOCUMENTS\MECANICA_PRACTICAS\MECANICA\PARTICLES2D CON ESFERA\PARTICLES2D\INPUTMANAGER.CPP
C:\USERS\JJURADO\DOCUMENTS\MECANICA_PRACTICAS\MECANICA\PARTICLES2D CON ESFERA\PARTICLES2D\DEBUG\VC140.PDB
^C:\USERS\JJURADO\DOCUMENTS\MECANICA_PRACTICAS\MECANICA\PARTICLES2D CON ESFERA\PARTICLES2D\MAINPART2D.CPP
C:\USERS\JJURADO\DOCUMENTS\MECANICA_PRACTICAS\MECANICA\PARTICLES2D CON ESFERA\PARTICLES2D\DEBUG\VC140.PDB
^C:\USERS\JJURADO\DOCUMENTS\MECANICA_PRACTICAS\MECANICA\PARTICLES2D CON ESFERA\PARTICLES2D\PARTICLE.CPP
C:\USERS\JJURADO\DOCUMENTS\MECANICA_PRACTICAS\MECANICA\PARTICLES2D CON ESFERA\PARTICLES2D\DEBUG\VC140.PDB
C:\USERS\JJURADO\DOCUMENTS\MECANICA_PRACTICAS\MECANICA\PARTICLES2D CON ESFERA\PARTICLES2D\DEBUG\VC140.IDB
C:\USERS\JJURADO\DOCUMENTS\MECANICA_PRACTICAS\MECANICA\PARTICLES2D CON ESFERA\PARTICLES2D\DEBUG\PARTICLE.OBJ
^C:\USERS\JJURADO\DOCUMENTS\MECANICA_PRACTICAS\MECANICA\PARTICLES2D CON ESFERA\PARTICLES2D\WINDOW.CPP
C:\USERS\JJURADO\DOCUMENTS\MECANICA_PRACTICAS\MECANICA\PARTICLES2D CON ESFERA\PARTICLES2D\DEBUG\VC140.PDB
^C:\USERS\JJURADO\DOCUMENTS\MECANICA_PRACTICAS\MECANICA\PARTICLES2D CON ESFERA\PARTICLES2D\GAME.CPP|C:\USERS\JJURADO\DOCUMENTS\MECANICA_PRACTICAS\MECANICA\PARTICLES2D CON ESFERA\PARTICLES2D\MAINPART2D.CPP
C:\USERS\JJURADO\DOCUMENTS\MECANICA_PRACTICAS\MECANICA\PARTICLES2D CON ESFERA\PARTICLES2D\DEBUG\VC140.PDB
C:\USERS\JJURADO\DOCUMENTS\MECANICA_PRACTICAS\MECANICA\PARTICLES2D CON ESFERA\PARTICLES2D\DEBUG\VC140.IDB
C:\USERS\JJURADO\DOCUMENTS\MECANICA_PRACTICAS\MECANICA\PARTICLES2D CON ESFERA\PARTICLES2D\DEBUG\GAME.OBJ
C:\USERS\JJURADO\DOCUMENTS\MECANICA_PRACTICAS\MECANICA\PARTICLES2D CON ESFERA\PARTICLES2D\DEBUG\MAINPART2D.OBJ
^C:\USERS\JJURADO\DOCUMENTS\MECANICA_PRACTICAS\MECANICA\PARTICLES2D CON ESFERA\PARTICLES2D\GAME.CPP|C:\USERS\JJURADO\DOCUMENTS\MECANICA_PRACTICAS\MECANICA\PARTICLES2D CON ESFERA\PARTICLES2D\PARTICLE.CPP
C:\USERS\JJURADO\DOCUMENTS\MECANICA_PRACTICAS\MECANICA\PARTICLES2D CON ESFERA\PARTICLES2D\DEBUG\VC140.PDB
C:\USERS\JJURADO\DOCUMENTS\MECANICA_PRACTICAS\MECANICA\PARTICLES2D CON ESFERA\PARTICLES2D\DEBUG\VC140.IDB
C:\USERS\JJURADO\DOCUMENTS\MECANICA_PRACTICAS\MECANICA\PARTICLES2D CON ESFERA\PARTICLES2D\DEBUG\GAME.OBJ
C:\USERS\JJURADO\DOCUMENTS\MECANICA_PRACTICAS\MECANICA\PARTICLES2D CON ESFERA\PARTICLES2D\DEBUG\PARTICLE.OBJ
