#Command: "C:\Program Files (x86)\Microsoft Visual Studio 14.0\VC\bin\link.exe" /ERRORREPORT:PROMPT @C:\Users\vlopez\AppData\Local\Temp\tmpa840c80b9e26486eadd5855c2886449b.rsp
^C:\USERS\VLOPEZ\DESKTOP\PROGRAMMING_TECHNOLOGY\MECANINCA\PARTICLES2D - INITIAL\PARTICLES2D\DEBUG\ERRORMANAGEMENT.OBJ|C:\USERS\VLOPEZ\DESKTOP\PROGRAMMING_TECHNOLOGY\MECANINCA\PARTICLES2D - INITIAL\PARTICLES2D\DEBUG\FPSLIMITER.OBJ|C:\USERS\VLOPEZ\DESKTOP\PROGRAMMING_TECHNOLOGY\MECANINCA\PARTICLES2D - INITIAL\PARTICLES2D\DEBUG\GAME.OBJ|C:\USERS\VLOPEZ\DESKTOP\PROGRAMMING_TECHNOLOGY\MECANINCA\PARTICLES2D - INITIAL\PARTICLES2D\DEBUG\GEOMETRYPLANE.OBJ|C:\USERS\VLOPEZ\DESKTOP\PROGRAMMING_TECHNOLOGY\MECANINCA\PARTICLES2D - INITIAL\PARTICLES2D\DEBUG\GLSLPROGRAM.OBJ|C:\USERS\VLOPEZ\DESKTOP\PROGRAMMING_TECHNOLOGY\MECANINCA\PARTICLES2D - INITIAL\PARTICLES2D\DEBUG\INPUTMANAGER.OBJ|C:\USERS\VLOPEZ\DESKTOP\PROGRAMMING_TECHNOLOGY\MECANINCA\PARTICLES2D - INITIAL\PARTICLES2D\DEBUG\MAINPART2D.OBJ|C:\USERS\VLOPEZ\DESKTOP\PROGRAMMING_TECHNOLOGY\MECANINCA\PARTICLES2D - INITIAL\PARTICLES2D\DEBUG\PARTICLE.OBJ|C:\USERS\VLOPEZ\DESKTOP\PROGRAMMING_TECHNOLOGY\MECANINCA\PARTICLES2D - INITIAL\PARTICLES2D\DEBUG\WINDOW.OBJ
C:\USERS\VLOPEZ\DESKTOP\PROGRAMMING_TECHNOLOGY\MECANINCA\PARTICLES2D - INITIAL\DEBUG\PARTICLES2D.PDB
#Command: "C:\Program Files (x86)\Microsoft Visual Studio 14.0\VC\bin\link.exe" /ERRORREPORT:PROMPT @C:\Users\jjurado\AppData\Local\Temp\tmpd4126c1b19104efe8d388346aae4770f.rsp
^C:\USERS\JJURADO\DOCUMENTS\VISUAL STUDIO 2015\PROJECTS\MECANICA\PARTICLES2D - INITIAL\PARTICLES2D\DEBUG\ERRORMANAGEMENT.OBJ|C:\USERS\JJURADO\DOCUMENTS\VISUAL STUDIO 2015\PROJECTS\MECANICA\PARTICLES2D - INITIAL\PARTICLES2D\DEBUG\FPSLIMITER.OBJ|C:\USERS\JJURADO\DOCUMENTS\VISUAL STUDIO 2015\PROJECTS\MECANICA\PARTICLES2D - INITIAL\PARTICLES2D\DEBUG\GAME.OBJ|C:\USERS\JJURADO\DOCUMENTS\VISUAL STUDIO 2015\PROJECTS\MECANICA\PARTICLES2D - INITIAL\PARTICLES2D\DEBUG\GEOMETRYPLANE.OBJ|C:\USERS\JJURADO\DOCUMENTS\VISUAL STUDIO 2015\PROJECTS\MECANICA\PARTICLES2D - INITIAL\PARTICLES2D\DEBUG\GLSLPROGRAM.OBJ|C:\USERS\JJURADO\DOCUMENTS\VISUAL STUDIO 2015\PROJECTS\MECANICA\PARTICLES2D - INITIAL\PARTICLES2D\DEBUG\INPUTMANAGER.OBJ|C:\USERS\JJURADO\DOCUMENTS\VISUAL STUDIO 2015\PROJECTS\MECANICA\PARTICLES2D - INITIAL\PARTICLES2D\DEBUG\MAINPART2D.OBJ|C:\USERS\JJURADO\DOCUMENTS\VISUAL STUDIO 2015\PROJECTS\MECANICA\PARTICLES2D - INITIAL\PARTICLES2D\DEBUG\PARTICLE.OBJ|C:\USERS\JJURADO\DOCUMENTS\VISUAL STUDIO 2015\PROJECTS\MECANICA\PARTICLES2D - INITIAL\PARTICLES2D\DEBUG\WINDOW.OBJ
C:\USERS\JJURADO\DOCUMENTS\VISUAL STUDIO 2015\PROJECTS\MECANICA\PARTICLES2D - INITIAL\DEBUG\PARTICLES2D.PDB
#Command: "C:\Program Files (x86)\Microsoft Visual Studio 14.0\VC\bin\link.exe" /ERRORREPORT:PROMPT @C:\Users\jjurado\AppData\Local\Temp\tmp559c1dcf3e9f4a12a6fa0269d53e546a.rsp
^C:\USERS\JJURADO\DOCUMENTS\MECANICA_OLD\MECANICA\PARTICLES2D - INITIAL\PARTICLES2D\DEBUG\ERRORMANAGEMENT.OBJ|C:\USERS\JJURADO\DOCUMENTS\MECANICA_OLD\MECANICA\PARTICLES2D - INITIAL\PARTICLES2D\DEBUG\FPSLIMITER.OBJ|C:\USERS\JJURADO\DOCUMENTS\MECANICA_OLD\MECANICA\PARTICLES2D - INITIAL\PARTICLES2D\DEBUG\GAME.OBJ|C:\USERS\JJURADO\DOCUMENTS\MECANICA_OLD\MECANICA\PARTICLES2D - INITIAL\PARTICLES2D\DEBUG\GEOMETRYPLANE.OBJ|C:\USERS\JJURADO\DOCUMENTS\MECANICA_OLD\MECANICA\PARTICLES2D - INITIAL\PARTICLES2D\DEBUG\GLSLPROGRAM.OBJ|C:\USERS\JJURADO\DOCUMENTS\MECANICA_OLD\MECANICA\PARTICLES2D - INITIAL\PARTICLES2D\DEBUG\INPUTMANAGER.OBJ|C:\USERS\JJURADO\DOCUMENTS\MECANICA_OLD\MECANICA\PARTICLES2D - INITIAL\PARTICLES2D\DEBUG\MAINPART2D.OBJ|C:\USERS\JJURADO\DOCUMENTS\MECANICA_OLD\MECANICA\PARTICLES2D - INITIAL\PARTICLES2D\DEBUG\PARTICLE.OBJ|C:\USERS\JJURADO\DOCUMENTS\MECANICA_OLD\MECANICA\PARTICLES2D - INITIAL\PARTICLES2D\DEBUG\WINDOW.OBJ
C:\USERS\JJURADO\DOCUMENTS\MECANICA_OLD\MECANICA\PARTICLES2D - INITIAL\DEBUG\PARTICLES2D.PDB
#Command: "C:\Program Files (x86)\Microsoft Visual Studio 14.0\VC\bin\link.exe" /ERRORREPORT:PROMPT @C:\Users\jjurado\AppData\Local\Temp\tmp3b01cb66a0574509b773aa3593ae9676.rsp
^C:\USERS\JJURADO\DOCUMENTS\MECANICA_OLD\MECANICA\PARTICLES2D CON ESFERA\PARTICLES2D\DEBUG\ERRORMANAGEMENT.OBJ|C:\USERS\JJURADO\DOCUMENTS\MECANICA_OLD\MECANICA\PARTICLES2D CON ESFERA\PARTICLES2D\DEBUG\FPSLIMITER.OBJ|C:\USERS\JJURADO\DOCUMENTS\MECANICA_OLD\MECANICA\PARTICLES2D CON ESFERA\PARTICLES2D\DEBUG\GAME.OBJ|C:\USERS\JJURADO\DOCUMENTS\MECANICA_OLD\MECANICA\PARTICLES2D CON ESFERA\PARTICLES2D\DEBUG\GEOMETRYPLANE.OBJ|C:\USERS\JJURADO\DOCUMENTS\MECANICA_OLD\MECANICA\PARTICLES2D CON ESFERA\PARTICLES2D\DEBUG\GLSLPROGRAM.OBJ|C:\USERS\JJURADO\DOCUMENTS\MECANICA_OLD\MECANICA\PARTICLES2D CON ESFERA\PARTICLES2D\DEBUG\INPUTMANAGER.OBJ|C:\USERS\JJURADO\DOCUMENTS\MECANICA_OLD\MECANICA\PARTICLES2D CON ESFERA\PARTICLES2D\DEBUG\MAINPART2D.OBJ|C:\USERS\JJURADO\DOCUMENTS\MECANICA_OLD\MECANICA\PARTICLES2D CON ESFERA\PARTICLES2D\DEBUG\PARTICLE.OBJ|C:\USERS\JJURADO\DOCUMENTS\MECANICA_OLD\MECANICA\PARTICLES2D CON ESFERA\PARTICLES2D\DEBUG\WINDOW.OBJ
C:\USERS\JJURADO\DOCUMENTS\MECANICA_OLD\MECANICA\PARTICLES2D CON ESFERA\DEBUG\PARTICLES2D.PDB
#Command: "C:\Program Files (x86)\Microsoft Visual Studio 14.0\VC\bin\link.exe" /ERRORREPORT:PROMPT @C:\Users\jjurado\AppData\Local\Temp\tmp202ddc042882492b9b8ace8d7dcf47a2.rsp
^C:\USERS\JJURADO\DOCUMENTS\MECANICA_PRACTICAS\MECANICA\PARTICLES2D CON ESFERA\PARTICLES2D\DEBUG\ERRORMANAGEMENT.OBJ|C:\USERS\JJURADO\DOCUMENTS\MECANICA_PRACTICAS\MECANICA\PARTICLES2D CON ESFERA\PARTICLES2D\DEBUG\FPSLIMITER.OBJ|C:\USERS\JJURADO\DOCUMENTS\MECANICA_PRACTICAS\MECANICA\PARTICLES2D CON ESFERA\PARTICLES2D\DEBUG\GAME.OBJ|C:\USERS\JJURADO\DOCUMENTS\MECANICA_PRACTICAS\MECANICA\PARTICLES2D CON ESFERA\PARTICLES2D\DEBUG\GEOMETRYPLANE.OBJ|C:\USERS\JJURADO\DOCUMENTS\MECANICA_PRACTICAS\MECANICA\PARTICLES2D CON ESFERA\PARTICLES2D\DEBUG\GLSLPROGRAM.OBJ|C:\USERS\JJURADO\DOCUMENTS\MECANICA_PRACTICAS\MECANICA\PARTICLES2D CON ESFERA\PARTICLES2D\DEBUG\INPUTMANAGER.OBJ|C:\USERS\JJURADO\DOCUMENTS\MECANICA_PRACTICAS\MECANICA\PARTICLES2D CON ESFERA\PARTICLES2D\DEBUG\MAINPART2D.OBJ|C:\USERS\JJURADO\DOCUMENTS\MECANICA_PRACTICAS\MECANICA\PARTICLES2D CON ESFERA\PARTICLES2D\DEBUG\PARTICLE.OBJ|C:\USERS\JJURADO\DOCUMENTS\MECANICA_PRACTICAS\MECANICA\PARTICLES2D CON ESFERA\PARTICLES2D\DEBUG\WINDOW.OBJ
C:\USERS\JJURADO\DOCUMENTS\MECANICA_PRACTICAS\MECANICA\PARTICLES2D CON ESFERA\DEBUG\PARTICLES2D.PDB
